^TextureMap.fx
N:\Programming\Second Year\directxprojects\3DCubeDemo\Debug\TextureMap.cso
^TextureMap.fx
N:\Programming\Second Year\directxprojects\3DCubeDemo\Debug\TextureMap.cso
^TextureMap.fx
N:\Programming\Second Year\directxprojects\3DCubeDemo\Debug\TextureMap.cso
^TextureMap.fx
N:\Programming\Second Year\directxprojects\3DCubeDemo\Debug\TextureMap.cso
^TextureMap.fx
N:\Programming\Second Year\directxprojects\3DCubeDemo\Debug\TextureMap.cso
^TextureMap.fx
N:\Programming\Second Year\directxprojects\3DCubeDemo\Debug\TextureMap.cso
^TextureMap.fx
D:\Uni Stuff\Second Year\Programming\DirectX\ImportantProjects\3DCubeDemo\Debug\TextureMap.cso
^TextureMap.fx
D:\Uni Stuff\Second Year\Programming\DirectX\ImportantProjects\3DCubeDemo\Debug\TextureMap.cso
