^N:\PROGRAMMING\SECOND YEAR\DIRECTXPROJECTS\3DCUBEDEMO\TEXTUREMAP.FX
/nologo /T fx_5_0 /Fo "N:\Programming\Second Year\directxprojects\3DCubeDemo\Debug\TextureMap.cso" /Od /Zi N:\PROGRAMMING\SECOND YEAR\DIRECTXPROJECTS\3DCUBEDEMO\TEXTUREMAP.FX
^D:\UNI STUFF\SECOND YEAR\PROGRAMMING\DIRECTX\IMPORTANTPROJECTS\3DCUBEDEMO\TEXTUREMAP.FX
/nologo /T fx_5_0 /Fo "D:\Uni Stuff\Second Year\Programming\DirectX\ImportantProjects\3DCubeDemo\Debug\TextureMap.cso" /Od /Zi D:\UNI STUFF\SECOND YEAR\PROGRAMMING\DIRECTX\IMPORTANTPROJECTS\3DCUBEDEMO\TEXTUREMAP.FX
