^D:\UNI STUFF\SECOND YEAR\PROGRAMMING\DIRECTX\IMPORTANTPROJECTS\3DINVERSIONCOLOR\COLORINVERSION.FX
C:\PROGRAM FILES (X86)\WINDOWS KITS\8.1\BIN\X86\FXC.EXE
C:\WINDOWS\GLOBALIZATION\SORTING\SORTDEFAULT.NLS
^N:\UNI\PROGRAMMING\SECOND YEAR\DIRECTXPROJECTS\3DINVERSIONCOLOR\COLORINVERSION.FX
C:\PROGRAM FILES (X86)\WINDOWS KITS\8.1\BIN\X86\FXC.EXE
C:\WINDOWS\SYSTEM32\RSAENH.DLL
C:\WINDOWS\GLOBALIZATION\SORTING\SORTDEFAULT.NLS
^N:\UNI\PROGRAMMING\SECOND YEAR\DIRECTXPROJECTS\3DCOLOURSHIFT\COLORINVERSION.FX
C:\PROGRAM FILES (X86)\WINDOWS KITS\8.1\BIN\X86\FXC.EXE
C:\WINDOWS\SYSTEM32\RSAENH.DLL
C:\WINDOWS\GLOBALIZATION\SORTING\SORTDEFAULT.NLS
^N:\UNI\PROGRAMMING\SECOND YEAR\DIRECTXPROJECTS\3DCOLOURSHIFT\COLORSHIFT.FX
C:\PROGRAM FILES (X86)\WINDOWS KITS\8.1\BIN\X86\FXC.EXE
C:\WINDOWS\SYSTEM32\RSAENH.DLL
C:\WINDOWS\GLOBALIZATION\SORTING\SORTDEFAULT.NLS
