^N:\UNI\PROGRAMMING\SECOND YEAR\DIRECTXPROJECTS\3DINVERSIONCOLOR\DEBUG\COLORINVERSIONDEMO.OBJ|N:\UNI\PROGRAMMING\SECOND YEAR\DIRECTXPROJECTS\3DINVERSIONCOLOR\DEBUG\DX11DEMOBASE.OBJ|N:\UNI\PROGRAMMING\SECOND YEAR\DIRECTXPROJECTS\3DINVERSIONCOLOR\DEBUG\MAIN.OBJ
C:\WINDOWS\GLOBALIZATION\SORTING\SORTDEFAULT.NLS
C:\PROGRAM FILES (X86)\WINDOWS KITS\8.1\LIB\WINV6.3\UM\X86\KERNEL32.LIB
C:\PROGRAM FILES (X86)\WINDOWS KITS\8.1\LIB\WINV6.3\UM\X86\USER32.LIB
C:\PROGRAM FILES (X86)\WINDOWS KITS\8.1\LIB\WINV6.3\UM\X86\GDI32.LIB
C:\PROGRAM FILES (X86)\WINDOWS KITS\8.1\LIB\WINV6.3\UM\X86\WINSPOOL.LIB
C:\PROGRAM FILES (X86)\WINDOWS KITS\8.1\LIB\WINV6.3\UM\X86\COMDLG32.LIB
C:\PROGRAM FILES (X86)\WINDOWS KITS\8.1\LIB\WINV6.3\UM\X86\ADVAPI32.LIB
C:\PROGRAM FILES (X86)\WINDOWS KITS\8.1\LIB\WINV6.3\UM\X86\SHELL32.LIB
C:\PROGRAM FILES (X86)\WINDOWS KITS\8.1\LIB\WINV6.3\UM\X86\OLE32.LIB
C:\PROGRAM FILES (X86)\WINDOWS KITS\8.1\LIB\WINV6.3\UM\X86\OLEAUT32.LIB
C:\PROGRAM FILES (X86)\WINDOWS KITS\8.1\LIB\WINV6.3\UM\X86\UUID.LIB
C:\PROGRAM FILES (X86)\WINDOWS KITS\8.1\LIB\WINV6.3\UM\X86\ODBC32.LIB
C:\PROGRAM FILES (X86)\WINDOWS KITS\8.1\LIB\WINV6.3\UM\X86\ODBCCP32.LIB
C:\PROGRAM FILES (X86)\MICROSOFT DIRECTX SDK (JUNE 2010)\LIB\X86\D3D11.LIB
C:\PROGRAM FILES (X86)\MICROSOFT DIRECTX SDK (JUNE 2010)\LIB\X86\D3DX11.LIB
C:\PROGRAM FILES (X86)\MICROSOFT DIRECTX SDK (JUNE 2010)\LIB\X86\DXERR.LIB
C:\PROGRAM FILES (X86)\MICROSOFT VISUAL STUDIO 14.0\VC\LIB\LEGACY_STDIO_DEFINITIONS.LIB
C:\PROGRAM FILES (X86)\MICROSOFT DIRECTX SDK (JUNE 2010)\LIB\X86\D3DCOMPILER.LIB
N:\UNI\PROGRAMMING\SECOND YEAR\DIRECTXPROJECTS\3DINVERSIONCOLOR\EFFECTS11D.LIB
N:\UNI\PROGRAMMING\SECOND YEAR\DIRECTXPROJECTS\3DINVERSIONCOLOR\DEBUG\DX11DEMOBASE.OBJ
N:\UNI\PROGRAMMING\SECOND YEAR\DIRECTXPROJECTS\3DINVERSIONCOLOR\DEBUG\MAIN.OBJ
N:\UNI\PROGRAMMING\SECOND YEAR\DIRECTXPROJECTS\3DINVERSIONCOLOR\DEBUG\COLORINVERSIONDEMO.OBJ
C:\WINDOWS\SYSTEM32\TZRES.DLL
C:\PROGRAM FILES (X86)\MICROSOFT VISUAL STUDIO 14.0\VC\BIN\1033\LINKUI.DLL
C:\PROGRAM FILES (X86)\MICROSOFT VISUAL STUDIO 14.0\VC\LIB\MSVCRTD.LIB
C:\PROGRAM FILES (X86)\MICROSOFT VISUAL STUDIO 14.0\VC\LIB\OLDNAMES.LIB
C:\PROGRAM FILES (X86)\MICROSOFT VISUAL STUDIO 14.0\VC\LIB\MSVCPRTD.LIB
C:\PROGRAM FILES (X86)\MICROSOFT DIRECTX SDK (JUNE 2010)\LIB\X86\DXGUID.LIB
C:\PROGRAM FILES (X86)\MICROSOFT VISUAL STUDIO 14.0\VC\LIB\LEGACY_STDIO_WIDE_SPECIFIERS.LIB
C:\PROGRAM FILES (X86)\MICROSOFT VISUAL STUDIO 14.0\VC\LIB\VCRUNTIMED.LIB
C:\PROGRAM FILES (X86)\WINDOWS KITS\10\LIB\10.0.10240.0\UCRT\X86\UCRTD.LIB
C:\PROGRAM FILES (X86)\WINDOWS KITS\8.1\BIN\X86\RC.EXE
C:\PROGRAM FILES (X86)\MICROSOFT VISUAL STUDIO 14.0\VC\BIN\CVTRES.EXE
C:\PROGRAM FILES (X86)\MICROSOFT VISUAL STUDIO 14.0\VC\BIN\1033\CVTRESUI.DLL
C:\WINDOWS\SYSTEM32\RSAENH.DLL
^N:\UNI\PROGRAMMING\SECOND YEAR\DIRECTXPROJECTS\3DCOLOURSHIFT\DEBUG\COLORSHIFT.OBJ|N:\UNI\PROGRAMMING\SECOND YEAR\DIRECTXPROJECTS\3DCOLOURSHIFT\DEBUG\DX11DEMOBASE.OBJ|N:\UNI\PROGRAMMING\SECOND YEAR\DIRECTXPROJECTS\3DCOLOURSHIFT\DEBUG\MAIN.OBJ
C:\WINDOWS\GLOBALIZATION\SORTING\SORTDEFAULT.NLS
C:\PROGRAM FILES (X86)\WINDOWS KITS\8.1\LIB\WINV6.3\UM\X86\KERNEL32.LIB
C:\PROGRAM FILES (X86)\WINDOWS KITS\8.1\LIB\WINV6.3\UM\X86\USER32.LIB
C:\PROGRAM FILES (X86)\WINDOWS KITS\8.1\LIB\WINV6.3\UM\X86\GDI32.LIB
C:\PROGRAM FILES (X86)\WINDOWS KITS\8.1\LIB\WINV6.3\UM\X86\WINSPOOL.LIB
C:\PROGRAM FILES (X86)\WINDOWS KITS\8.1\LIB\WINV6.3\UM\X86\COMDLG32.LIB
C:\PROGRAM FILES (X86)\WINDOWS KITS\8.1\LIB\WINV6.3\UM\X86\ADVAPI32.LIB
C:\PROGRAM FILES (X86)\WINDOWS KITS\8.1\LIB\WINV6.3\UM\X86\SHELL32.LIB
C:\PROGRAM FILES (X86)\WINDOWS KITS\8.1\LIB\WINV6.3\UM\X86\OLE32.LIB
C:\PROGRAM FILES (X86)\WINDOWS KITS\8.1\LIB\WINV6.3\UM\X86\OLEAUT32.LIB
C:\PROGRAM FILES (X86)\WINDOWS KITS\8.1\LIB\WINV6.3\UM\X86\UUID.LIB
C:\PROGRAM FILES (X86)\WINDOWS KITS\8.1\LIB\WINV6.3\UM\X86\ODBC32.LIB
C:\PROGRAM FILES (X86)\WINDOWS KITS\8.1\LIB\WINV6.3\UM\X86\ODBCCP32.LIB
C:\PROGRAM FILES (X86)\MICROSOFT DIRECTX SDK (JUNE 2010)\LIB\X86\D3D11.LIB
C:\PROGRAM FILES (X86)\MICROSOFT DIRECTX SDK (JUNE 2010)\LIB\X86\D3DX11.LIB
C:\PROGRAM FILES (X86)\MICROSOFT DIRECTX SDK (JUNE 2010)\LIB\X86\DXERR.LIB
C:\PROGRAM FILES (X86)\MICROSOFT VISUAL STUDIO 14.0\VC\LIB\LEGACY_STDIO_DEFINITIONS.LIB
C:\PROGRAM FILES (X86)\MICROSOFT DIRECTX SDK (JUNE 2010)\LIB\X86\D3DCOMPILER.LIB
N:\UNI\PROGRAMMING\SECOND YEAR\DIRECTXPROJECTS\3DCOLOURSHIFT\EFFECTS11D.LIB
N:\UNI\PROGRAMMING\SECOND YEAR\DIRECTXPROJECTS\3DCOLOURSHIFT\DEBUG\DX11DEMOBASE.OBJ
N:\UNI\PROGRAMMING\SECOND YEAR\DIRECTXPROJECTS\3DCOLOURSHIFT\DEBUG\MAIN.OBJ
N:\UNI\PROGRAMMING\SECOND YEAR\DIRECTXPROJECTS\3DCOLOURSHIFT\DEBUG\COLORSHIFT.OBJ
C:\WINDOWS\SYSTEM32\TZRES.DLL
C:\PROGRAM FILES (X86)\MICROSOFT VISUAL STUDIO 14.0\VC\BIN\1033\LINKUI.DLL
C:\PROGRAM FILES (X86)\MICROSOFT VISUAL STUDIO 14.0\VC\LIB\MSVCRTD.LIB
C:\PROGRAM FILES (X86)\MICROSOFT VISUAL STUDIO 14.0\VC\LIB\OLDNAMES.LIB
C:\PROGRAM FILES (X86)\MICROSOFT VISUAL STUDIO 14.0\VC\LIB\MSVCPRTD.LIB
C:\PROGRAM FILES (X86)\MICROSOFT DIRECTX SDK (JUNE 2010)\LIB\X86\DXGUID.LIB
C:\PROGRAM FILES (X86)\MICROSOFT VISUAL STUDIO 14.0\VC\LIB\LEGACY_STDIO_WIDE_SPECIFIERS.LIB
C:\PROGRAM FILES (X86)\MICROSOFT VISUAL STUDIO 14.0\VC\LIB\VCRUNTIMED.LIB
C:\PROGRAM FILES (X86)\WINDOWS KITS\10\LIB\10.0.10240.0\UCRT\X86\UCRTD.LIB
C:\PROGRAM FILES (X86)\MICROSOFT VISUAL STUDIO 14.0\VC\BIN\LINK.EXE
C:\PROGRAM FILES (X86)\MICROSOFT VISUAL STUDIO 14.0\VC\BIN\1033\CVTRESUI.DLL
C:\WINDOWS\SYSTEM32\RSAENH.DLL
C:\PROGRAM FILES (X86)\WINDOWS KITS\8.1\BIN\X86\RC.EXE
C:\PROGRAM FILES (X86)\MICROSOFT VISUAL STUDIO 14.0\VC\BIN\CVTRES.EXE
