^N:\PROGRAMMING\SECOND YEAR\DIRECTXPROJECTS\2DTRIANGLEINPUT\CUSTOMCOLOR.HLSL
C:\PROGRAM FILES (X86)\WINDOWS KITS\8.1\BIN\X86\FXC.EXE
C:\WINDOWS\SYSTEM32\RSAENH.DLL
C:\WINDOWS\GLOBALIZATION\SORTING\SORTDEFAULT.NLS
^N:\PROGRAMMING\SECOND YEAR\DIRECTXPROJECTS\2DTRIANGLEINPUT\CUSTOMCOLOR.FX
^N:\PROGRAMMING\SECOND YEAR\DIRECTXPROJECTS\2DTRIANGLEINPUT\PIXELSHADER.HLSL
C:\PROGRAM FILES (X86)\WINDOWS KITS\8.1\BIN\X86\FXC.EXE
C:\WINDOWS\SYSTEM32\RSAENH.DLL
C:\WINDOWS\GLOBALIZATION\SORTING\SORTDEFAULT.NLS
^N:\PROGRAMMING\SECOND YEAR\DIRECTXPROJECTS\2DTRIANGLEINPUT\VERTEXSHADER.HLSL
C:\PROGRAM FILES (X86)\WINDOWS KITS\8.1\BIN\X86\FXC.EXE
C:\WINDOWS\SYSTEM32\RSAENH.DLL
C:\WINDOWS\GLOBALIZATION\SORTING\SORTDEFAULT.NLS
^N:\PROGRAMMING\SECOND YEAR\DIRECTXPROJECTS\2DTRIANGLEKEYBOARDINPUT\CUSTOMCOLOR.FX
^N:\PROGRAMMING\SECOND YEAR\DIRECTXPROJECTS\2DTRIANGLEKEYBOARDINPUT\PIXELSHADER.HLSL
C:\PROGRAM FILES (X86)\WINDOWS KITS\8.1\BIN\X86\FXC.EXE
C:\WINDOWS\SYSTEM32\RSAENH.DLL
C:\WINDOWS\GLOBALIZATION\SORTING\SORTDEFAULT.NLS
^N:\PROGRAMMING\SECOND YEAR\DIRECTXPROJECTS\2DTRIANGLEKEYBOARDINPUT\VERTEXSHADER.HLSL
C:\PROGRAM FILES (X86)\WINDOWS KITS\8.1\BIN\X86\FXC.EXE
C:\WINDOWS\SYSTEM32\RSAENH.DLL
C:\WINDOWS\GLOBALIZATION\SORTING\SORTDEFAULT.NLS
^N:\PROGRAMMING\SECOND YEAR\DIRECTXPROJECTS\2DTRIANGLECONTROLLERINPUT\CUSTOMCOLOR.FX
^N:\PROGRAMMING\SECOND YEAR\DIRECTXPROJECTS\2DTRIANGLECONTROLLERINPUT\PIXELSHADER.HLSL
C:\PROGRAM FILES (X86)\WINDOWS KITS\8.1\BIN\X86\FXC.EXE
C:\WINDOWS\SYSTEM32\RSAENH.DLL
C:\WINDOWS\GLOBALIZATION\SORTING\SORTDEFAULT.NLS
^N:\PROGRAMMING\SECOND YEAR\DIRECTXPROJECTS\2DTRIANGLECONTROLLERINPUT\VERTEXSHADER.HLSL
C:\PROGRAM FILES (X86)\WINDOWS KITS\8.1\BIN\X86\FXC.EXE
C:\WINDOWS\SYSTEM32\RSAENH.DLL
C:\WINDOWS\GLOBALIZATION\SORTING\SORTDEFAULT.NLS
^D:\UNI STUFF\SECOND YEAR\PROGRAMMING\DIRECTX\IMPORTANTPROJECTS\2DTRIANGLECONTROLLERINPUT\CUSTOMCOLOR.FX
^D:\UNI STUFF\SECOND YEAR\PROGRAMMING\DIRECTX\IMPORTANTPROJECTS\2DTRIANGLECONTROLLERINPUT\PIXELSHADER.HLSL
C:\PROGRAM FILES (X86)\WINDOWS KITS\8.1\BIN\X86\FXC.EXE
C:\WINDOWS\GLOBALIZATION\SORTING\SORTDEFAULT.NLS
^D:\UNI STUFF\SECOND YEAR\PROGRAMMING\DIRECTX\IMPORTANTPROJECTS\2DTRIANGLECONTROLLERINPUT\VERTEXSHADER.HLSL
C:\PROGRAM FILES (X86)\WINDOWS KITS\8.1\BIN\X86\FXC.EXE
C:\WINDOWS\GLOBALIZATION\SORTING\SORTDEFAULT.NLS
