^N:\PROGRAMMING\SECOND YEAR\DIRECTXPROJECTS\2DTRIANGLEINPUT\DEBUG\DX11DEMOBASE.OBJ|N:\PROGRAMMING\SECOND YEAR\DIRECTXPROJECTS\2DTRIANGLEINPUT\DEBUG\KEYBOARDDEMO.OBJ|N:\PROGRAMMING\SECOND YEAR\DIRECTXPROJECTS\2DTRIANGLEINPUT\DEBUG\MAIN.OBJ
/OUT:"N:\PROGRAMMING\SECOND YEAR\DIRECTXPROJECTS\2DTRIANGLEINPUT\DEBUG\BLANKD3DWINDOW.EXE" /INCREMENTAL /NOLOGO KERNEL32.LIB USER32.LIB GDI32.LIB WINSPOOL.LIB COMDLG32.LIB ADVAPI32.LIB SHELL32.LIB OLE32.LIB OLEAUT32.LIB UUID.LIB ODBC32.LIB ODBCCP32.LIB D3D11.LIB D3DX11.LIB DXERR.LIB LEGACY_STDIO_DEFINITIONS.LIB D3DCOMPILER.LIB DINPUT8.LIB DXGUID.LIB KERNEL32.LIB USER32.LIB GDI32.LIB WINSPOOL.LIB COMDLG32.LIB ADVAPI32.LIB SHELL32.LIB OLE32.LIB OLEAUT32.LIB UUID.LIB ODBC32.LIB ODBCCP32.LIB /MANIFEST /MANIFESTUAC:"level='asInvoker' uiAccess='false'" /manifest:embed /DEBUG:FASTLINK /PDB:"N:\PROGRAMMING\SECOND YEAR\DIRECTXPROJECTS\2DTRIANGLEINPUT\DEBUG\BLANKD3DWINDOW.PDB" /TLBID:1 /DYNAMICBASE /NXCOMPAT /IMPLIB:"N:\PROGRAMMING\SECOND YEAR\DIRECTXPROJECTS\2DTRIANGLEINPUT\DEBUG\BLANKD3DWINDOW.LIB" /MACHINE:X86 DEBUG\DX11DEMOBASE.OBJDEBUG\MAIN.OBJDEBUG\KEYBOARDDEMO.OBJ
^N:\PROGRAMMING\SECOND YEAR\DIRECTXPROJECTS\2DTRIANGLEKEYBOARDINPUT\DEBUG\DX11DEMOBASE.OBJ|N:\PROGRAMMING\SECOND YEAR\DIRECTXPROJECTS\2DTRIANGLEKEYBOARDINPUT\DEBUG\KEYBOARDDEMO.OBJ|N:\PROGRAMMING\SECOND YEAR\DIRECTXPROJECTS\2DTRIANGLEKEYBOARDINPUT\DEBUG\MAIN.OBJ
/OUT:"N:\PROGRAMMING\SECOND YEAR\DIRECTXPROJECTS\2DTRIANGLEKEYBOARDINPUT\DEBUG\BLANKD3DWINDOW.EXE" /INCREMENTAL /NOLOGO KERNEL32.LIB USER32.LIB GDI32.LIB WINSPOOL.LIB COMDLG32.LIB ADVAPI32.LIB SHELL32.LIB OLE32.LIB OLEAUT32.LIB UUID.LIB ODBC32.LIB ODBCCP32.LIB D3D11.LIB D3DX11.LIB DXERR.LIB LEGACY_STDIO_DEFINITIONS.LIB D3DCOMPILER.LIB DINPUT8.LIB DXGUID.LIB KERNEL32.LIB USER32.LIB GDI32.LIB WINSPOOL.LIB COMDLG32.LIB ADVAPI32.LIB SHELL32.LIB OLE32.LIB OLEAUT32.LIB UUID.LIB ODBC32.LIB ODBCCP32.LIB /MANIFEST /MANIFESTUAC:"level='asInvoker' uiAccess='false'" /manifest:embed /DEBUG:FASTLINK /PDB:"N:\PROGRAMMING\SECOND YEAR\DIRECTXPROJECTS\2DTRIANGLEKEYBOARDINPUT\DEBUG\BLANKD3DWINDOW.PDB" /TLBID:1 /DYNAMICBASE /NXCOMPAT /IMPLIB:"N:\PROGRAMMING\SECOND YEAR\DIRECTXPROJECTS\2DTRIANGLEKEYBOARDINPUT\DEBUG\BLANKD3DWINDOW.LIB" /MACHINE:X86 DEBUG\DX11DEMOBASE.OBJDEBUG\MAIN.OBJDEBUG\KEYBOARDDEMO.OBJ
^N:\PROGRAMMING\SECOND YEAR\DIRECTXPROJECTS\2DTRIANGLECONTROLLERINPUT\DEBUG\DX11DEMOBASE.OBJ|N:\PROGRAMMING\SECOND YEAR\DIRECTXPROJECTS\2DTRIANGLECONTROLLERINPUT\DEBUG\MAIN.OBJ|N:\PROGRAMMING\SECOND YEAR\DIRECTXPROJECTS\2DTRIANGLECONTROLLERINPUT\DEBUG\XINPUTDEMO.OBJ
/OUT:"N:\PROGRAMMING\SECOND YEAR\DIRECTXPROJECTS\2DTRIANGLECONTROLLERINPUT\DEBUG\BLANKD3DWINDOW.EXE" /INCREMENTAL /NOLOGO KERNEL32.LIB USER32.LIB GDI32.LIB WINSPOOL.LIB COMDLG32.LIB ADVAPI32.LIB SHELL32.LIB OLE32.LIB OLEAUT32.LIB UUID.LIB ODBC32.LIB ODBCCP32.LIB D3D11.LIB D3DX11.LIB DXERR.LIB LEGACY_STDIO_DEFINITIONS.LIB D3DCOMPILER.LIB DINPUT8.LIB DXGUID.LIB XINPUT.LIB KERNEL32.LIB USER32.LIB GDI32.LIB WINSPOOL.LIB COMDLG32.LIB ADVAPI32.LIB SHELL32.LIB OLE32.LIB OLEAUT32.LIB UUID.LIB ODBC32.LIB ODBCCP32.LIB /MANIFEST /MANIFESTUAC:"level='asInvoker' uiAccess='false'" /manifest:embed /DEBUG:FASTLINK /PDB:"N:\PROGRAMMING\SECOND YEAR\DIRECTXPROJECTS\2DTRIANGLECONTROLLERINPUT\DEBUG\BLANKD3DWINDOW.PDB" /TLBID:1 /DYNAMICBASE /NXCOMPAT /IMPLIB:"N:\PROGRAMMING\SECOND YEAR\DIRECTXPROJECTS\2DTRIANGLECONTROLLERINPUT\DEBUG\BLANKD3DWINDOW.LIB" /MACHINE:X86 DEBUG\DX11DEMOBASE.OBJDEBUG\MAIN.OBJDEBUG\XINPUTDEMO.OBJ
^D:\UNI STUFF\SECOND YEAR\PROGRAMMING\DIRECTX\IMPORTANTPROJECTS\2DTRIANGLECONTROLLERINPUT\DEBUG\DX11DEMOBASE.OBJ|D:\UNI STUFF\SECOND YEAR\PROGRAMMING\DIRECTX\IMPORTANTPROJECTS\2DTRIANGLECONTROLLERINPUT\DEBUG\MAIN.OBJ|D:\UNI STUFF\SECOND YEAR\PROGRAMMING\DIRECTX\IMPORTANTPROJECTS\2DTRIANGLECONTROLLERINPUT\DEBUG\XINPUTDEMO.OBJ
/OUT:"D:\UNI STUFF\SECOND YEAR\PROGRAMMING\DIRECTX\IMPORTANTPROJECTS\2DTRIANGLECONTROLLERINPUT\DEBUG\BLANKD3DWINDOW.EXE" /INCREMENTAL /NOLOGO KERNEL32.LIB USER32.LIB GDI32.LIB WINSPOOL.LIB COMDLG32.LIB ADVAPI32.LIB SHELL32.LIB OLE32.LIB OLEAUT32.LIB UUID.LIB ODBC32.LIB ODBCCP32.LIB D3D11.LIB D3DX11.LIB DXERR.LIB LEGACY_STDIO_DEFINITIONS.LIB D3DCOMPILER.LIB DINPUT8.LIB DXGUID.LIB XINPUT.LIB KERNEL32.LIB USER32.LIB GDI32.LIB WINSPOOL.LIB COMDLG32.LIB ADVAPI32.LIB SHELL32.LIB OLE32.LIB OLEAUT32.LIB UUID.LIB ODBC32.LIB ODBCCP32.LIB KERNEL32.LIB USER32.LIB GDI32.LIB WINSPOOL.LIB COMDLG32.LIB ADVAPI32.LIB SHELL32.LIB OLE32.LIB OLEAUT32.LIB UUID.LIB ODBC32.LIB ODBCCP32.LIB /MANIFEST /MANIFESTUAC:"level='asInvoker' uiAccess='false'" /manifest:embed /DEBUG:FASTLINK /PDB:"D:\UNI STUFF\SECOND YEAR\PROGRAMMING\DIRECTX\IMPORTANTPROJECTS\2DTRIANGLECONTROLLERINPUT\DEBUG\BLANKD3DWINDOW.PDB" /TLBID:1 /DYNAMICBASE /NXCOMPAT /IMPLIB:"D:\UNI STUFF\SECOND YEAR\PROGRAMMING\DIRECTX\IMPORTANTPROJECTS\2DTRIANGLECONTROLLERINPUT\DEBUG\BLANKD3DWINDOW.LIB" /MACHINE:X86 DEBUG\DX11DEMOBASE.OBJDEBUG\MAIN.OBJDEBUG\XINPUTDEMO.OBJ
