^N:\PROGRAMMING\SECOND YEAR\DIRECTXPROJECTS\2DFONTSYSTEM\DX11DEMOBASE.CPP|N:\PROGRAMMING\SECOND YEAR\DIRECTXPROJECTS\2DFONTSYSTEM\MAIN.CPP|N:\PROGRAMMING\SECOND YEAR\DIRECTXPROJECTS\2DFONTSYSTEM\TEXTDEMO.CPP
N:\PROGRAMMING\SECOND YEAR\DIRECTXPROJECTS\2DFONTSYSTEM\DEBUG\VC140.PDB
N:\PROGRAMMING\SECOND YEAR\DIRECTXPROJECTS\2DFONTSYSTEM\DEBUG\VC140.IDB
N:\PROGRAMMING\SECOND YEAR\DIRECTXPROJECTS\2DFONTSYSTEM\DEBUG\DX11DEMOBASE.OBJ
N:\PROGRAMMING\SECOND YEAR\DIRECTXPROJECTS\2DFONTSYSTEM\DEBUG\MAIN.OBJ
N:\PROGRAMMING\SECOND YEAR\DIRECTXPROJECTS\2DFONTSYSTEM\DEBUG\TEXTDEMO.OBJ
^N:\PROGRAMMING\SECOND YEAR\DIRECTXPROJECTS\2DFONTSYSTEM\DX11DEMOBASE.CPP
N:\PROGRAMMING\SECOND YEAR\DIRECTXPROJECTS\2DFONTSYSTEM\DEBUG\VC140.PDB
^N:\PROGRAMMING\SECOND YEAR\DIRECTXPROJECTS\2DFONTSYSTEM\MAIN.CPP
N:\PROGRAMMING\SECOND YEAR\DIRECTXPROJECTS\2DFONTSYSTEM\DEBUG\VC140.PDB
^N:\PROGRAMMING\SECOND YEAR\DIRECTXPROJECTS\2DFONTSYSTEM\TEXTDEMO.CPP
N:\PROGRAMMING\SECOND YEAR\DIRECTXPROJECTS\2DFONTSYSTEM\DEBUG\VC140.PDB
N:\PROGRAMMING\SECOND YEAR\DIRECTXPROJECTS\2DFONTSYSTEM\DEBUG\VC140.IDB
N:\PROGRAMMING\SECOND YEAR\DIRECTXPROJECTS\2DFONTSYSTEM\DEBUG\TEXTDEMO.OBJ
