^ColorInversion.fx
N:\Uni\Programming\Second Year\directxprojects\3DInversionColor\Debug\ColorInversion.cso
^ColorInversion.fx
N:\Uni\Programming\Second Year\directxprojects\3DInversionColor\Debug\ColorInversion.cso
^ColorInversion.fx
N:\Uni\Programming\Second Year\directxprojects\3DInversionColor\Debug\ColorInversion.cso
^ColorInversion.fx
N:\Uni\Programming\Second Year\directxprojects\3DInversionColor\Debug\ColorInversion.cso
^ColorInversion.fx
N:\Uni\Programming\Second Year\directxprojects\3DColourShift\Debug\ColorInversion.cso
^ColorInversion.fx
N:\Uni\Programming\Second Year\directxprojects\3DColourShift\Debug\ColorInversion.cso
^ColorInversion.fx
N:\Uni\Programming\Second Year\directxprojects\3DColourShift\Debug\ColorInversion.cso
^ColorInversion.fx
N:\Uni\Programming\Second Year\directxprojects\3DColourShift\Debug\ColorInversion.cso
^ColorShift.fx
N:\Uni\Programming\Second Year\directxprojects\3DColourShift\Debug\ColorShift.cso
^ColorShift.fx
N:\Uni\Programming\Second Year\directxprojects\3DColourShift\Debug\ColorShift.cso
^ColorShift.fx
N:\Uni\Programming\Second Year\directxprojects\3DColourShift\Debug\ColorShift.cso
^ColorShift.fx
N:\Uni\Programming\Second Year\directxprojects\3DColourShift\Debug\ColorShift.cso
^ColorShift.fx
N:\Uni\Programming\Second Year\directxprojects\3DColourShift\Debug\ColorShift.cso
^ColorShift.fx
N:\Uni\Programming\Second Year\directxprojects\3DColourShift\Debug\ColorShift.cso
^MultiTexture.fx
N:\Uni\Programming\Second Year\directxprojects\3DMultitexturing\Debug\MultiTexture.cso
^MultiTexture.fx
N:\Uni\Programming\Second Year\directxprojects\3DMultitexturing\Debug\MultiTexture.cso
^MultiTexture.fx
N:\Uni\Programming\Second Year\directxprojects\3DMultitexturing\Debug\MultiTexture.cso
^MultiTexture.fx
N:\Uni\Programming\Second Year\directxprojects\3DMultitexturing\Debug\MultiTexture.cso
^MultiTexture.fx
N:\Uni\Programming\Second Year\directxprojects\3DMultitexturing\Debug\MultiTexture.cso
^MultiTexture.fx
N:\Uni\Programming\Second Year\directxprojects\3DMultitexturing\Debug\MultiTexture.cso
^MultiTexture.fx
N:\Uni\Programming\Second Year\directxprojects\3DMultitexturing\Debug\MultiTexture.cso
^MultiTexture.fx
N:\Uni\Programming\Second Year\directxprojects\3DMultitexturing\Debug\MultiTexture.cso
^MultiTexture.fx
N:\Uni\Programming\Second Year\directxprojects\3DMultitexturing\Debug\MultiTexture.cso
^MultiTexture.fx
N:\Uni\Programming\Second Year\directxprojects\3DMultitexturing\Debug\MultiTexture.cso
^MultiTexture.fx
N:\Uni\Programming\Second Year\directxprojects\3DMultitexturing\Debug\MultiTexture.cso
^MultiTexture.fx
N:\Uni\Programming\Second Year\directxprojects\3DMultitexturing\Debug\MultiTexture.cso
^MultiTexture.fx
N:\Uni\Programming\Second Year\directxprojects\3DMultitexturing\Debug\MultiTexture.cso
^MultiTexture.fx
N:\Uni\Programming\Second Year\directxprojects\3DMultitexturing\Debug\MultiTexture.cso
