^D:\UNI STUFF\SECOND YEAR\PROGRAMMING\DIRECTX\IMPORTANTPROJECTS\3DINVERSIONCOLOR\DX11DEMOBASE.CPP
/c /ZI /nologo /W3 /WX- /sdl /Od /Oy- /D _MBCS /D _XM_NO_INTRINSICS /Gm /EHsc /RTC1 /MDd /GS /fp:precise /Zc:wchar_t /Zc:forScope /Zc:inline /Fo"DEBUG\\" /Fd"DEBUG\VC140.PDB" /Gd /TP /analyze- D:\UNI STUFF\SECOND YEAR\PROGRAMMING\DIRECTX\IMPORTANTPROJECTS\3DINVERSIONCOLOR\DX11DEMOBASE.CPP
^D:\UNI STUFF\SECOND YEAR\PROGRAMMING\DIRECTX\IMPORTANTPROJECTS\3DINVERSIONCOLOR\MAIN.CPP
/c /ZI /nologo /W3 /WX- /sdl /Od /Oy- /D _MBCS /D _XM_NO_INTRINSICS /Gm /EHsc /RTC1 /MDd /GS /fp:precise /Zc:wchar_t /Zc:forScope /Zc:inline /Fo"DEBUG\\" /Fd"DEBUG\VC140.PDB" /Gd /TP /analyze- D:\UNI STUFF\SECOND YEAR\PROGRAMMING\DIRECTX\IMPORTANTPROJECTS\3DINVERSIONCOLOR\MAIN.CPP
^D:\UNI STUFF\SECOND YEAR\PROGRAMMING\DIRECTX\IMPORTANTPROJECTS\3DINVERSIONCOLOR\COLORINVERSIONDEMO.CPP
/c /ZI /nologo /W3 /WX- /sdl /Od /Oy- /D _MBCS /D _XM_NO_INTRINSICS /Gm /EHsc /RTC1 /MDd /GS /fp:precise /Zc:wchar_t /Zc:forScope /Zc:inline /Fo"DEBUG\\" /Fd"DEBUG\VC140.PDB" /Gd /TP /analyze- D:\UNI STUFF\SECOND YEAR\PROGRAMMING\DIRECTX\IMPORTANTPROJECTS\3DINVERSIONCOLOR\COLORINVERSIONDEMO.CPP
^N:\UNI\PROGRAMMING\SECOND YEAR\DIRECTXPROJECTS\3DINVERSIONCOLOR\DX11DEMOBASE.CPP
/c /ZI /nologo /W3 /WX- /sdl /Od /Oy- /D _MBCS /D _XM_NO_INTRINSICS /Gm /EHsc /RTC1 /MDd /GS /fp:precise /Zc:wchar_t /Zc:forScope /Zc:inline /Fo"DEBUG\\" /Fd"DEBUG\VC140.PDB" /Gd /TP /analyze- N:\UNI\PROGRAMMING\SECOND YEAR\DIRECTXPROJECTS\3DINVERSIONCOLOR\DX11DEMOBASE.CPP
^N:\UNI\PROGRAMMING\SECOND YEAR\DIRECTXPROJECTS\3DINVERSIONCOLOR\MAIN.CPP
/c /ZI /nologo /W3 /WX- /sdl /Od /Oy- /D _MBCS /D _XM_NO_INTRINSICS /Gm /EHsc /RTC1 /MDd /GS /fp:precise /Zc:wchar_t /Zc:forScope /Zc:inline /Fo"DEBUG\\" /Fd"DEBUG\VC140.PDB" /Gd /TP /analyze- N:\UNI\PROGRAMMING\SECOND YEAR\DIRECTXPROJECTS\3DINVERSIONCOLOR\MAIN.CPP
^N:\UNI\PROGRAMMING\SECOND YEAR\DIRECTXPROJECTS\3DINVERSIONCOLOR\COLORINVERSIONDEMO.CPP
/c /ZI /nologo /W3 /WX- /sdl /Od /Oy- /D _MBCS /D _XM_NO_INTRINSICS /Gm /EHsc /RTC1 /MDd /GS /fp:precise /Zc:wchar_t /Zc:forScope /Zc:inline /Fo"DEBUG\\" /Fd"DEBUG\VC140.PDB" /Gd /TP /analyze- N:\UNI\PROGRAMMING\SECOND YEAR\DIRECTXPROJECTS\3DINVERSIONCOLOR\COLORINVERSIONDEMO.CPP
^N:\UNI\PROGRAMMING\SECOND YEAR\DIRECTXPROJECTS\3DCOLOURSHIFT\DX11DEMOBASE.CPP
/c /ZI /nologo /W3 /WX- /sdl /Od /Oy- /D _MBCS /D _XM_NO_INTRINSICS /Gm /EHsc /RTC1 /MDd /GS /fp:precise /Zc:wchar_t /Zc:forScope /Zc:inline /Fo"DEBUG\\" /Fd"DEBUG\VC140.PDB" /Gd /TP /analyze- N:\UNI\PROGRAMMING\SECOND YEAR\DIRECTXPROJECTS\3DCOLOURSHIFT\DX11DEMOBASE.CPP
^N:\UNI\PROGRAMMING\SECOND YEAR\DIRECTXPROJECTS\3DCOLOURSHIFT\MAIN.CPP
/c /ZI /nologo /W3 /WX- /sdl /Od /Oy- /D _MBCS /D _XM_NO_INTRINSICS /Gm /EHsc /RTC1 /MDd /GS /fp:precise /Zc:wchar_t /Zc:forScope /Zc:inline /Fo"DEBUG\\" /Fd"DEBUG\VC140.PDB" /Gd /TP /analyze- N:\UNI\PROGRAMMING\SECOND YEAR\DIRECTXPROJECTS\3DCOLOURSHIFT\MAIN.CPP
^N:\UNI\PROGRAMMING\SECOND YEAR\DIRECTXPROJECTS\3DCOLOURSHIFT\COLORINVERSIONDEMO.CPP
/c /ZI /nologo /W3 /WX- /sdl /Od /Oy- /D _MBCS /D _XM_NO_INTRINSICS /Gm /EHsc /RTC1 /MDd /GS /fp:precise /Zc:wchar_t /Zc:forScope /Zc:inline /Fo"DEBUG\\" /Fd"DEBUG\VC140.PDB" /Gd /TP /analyze- N:\UNI\PROGRAMMING\SECOND YEAR\DIRECTXPROJECTS\3DCOLOURSHIFT\COLORINVERSIONDEMO.CPP
^N:\UNI\PROGRAMMING\SECOND YEAR\DIRECTXPROJECTS\3DCOLOURSHIFT\COLORSHIFT.CPP
/c /ZI /nologo /W3 /WX- /sdl /Od /Oy- /D _MBCS /D _XM_NO_INTRINSICS /Gm /EHsc /RTC1 /MDd /GS /fp:precise /Zc:wchar_t /Zc:forScope /Zc:inline /Fo"DEBUG\\" /Fd"DEBUG\VC140.PDB" /Gd /TP /analyze- N:\UNI\PROGRAMMING\SECOND YEAR\DIRECTXPROJECTS\3DCOLOURSHIFT\COLORSHIFT.CPP
^N:\UNI\PROGRAMMING\SECOND YEAR\DIRECTXPROJECTS\3DMULTITEXTURING\DX11DEMOBASE.CPP
/c /ZI /nologo /W3 /WX- /sdl /Od /Oy- /D _MBCS /D _XM_NO_INTRINSICS /Gm /EHsc /RTC1 /MDd /GS /fp:precise /Zc:wchar_t /Zc:forScope /Zc:inline /Fo"DEBUG\\" /Fd"DEBUG\VC140.PDB" /Gd /TP /analyze- N:\UNI\PROGRAMMING\SECOND YEAR\DIRECTXPROJECTS\3DMULTITEXTURING\DX11DEMOBASE.CPP
^N:\UNI\PROGRAMMING\SECOND YEAR\DIRECTXPROJECTS\3DMULTITEXTURING\MAIN.CPP
/c /ZI /nologo /W3 /WX- /sdl /Od /Oy- /D _MBCS /D _XM_NO_INTRINSICS /Gm /EHsc /RTC1 /MDd /GS /fp:precise /Zc:wchar_t /Zc:forScope /Zc:inline /Fo"DEBUG\\" /Fd"DEBUG\VC140.PDB" /Gd /TP /analyze- N:\UNI\PROGRAMMING\SECOND YEAR\DIRECTXPROJECTS\3DMULTITEXTURING\MAIN.CPP
^N:\UNI\PROGRAMMING\SECOND YEAR\DIRECTXPROJECTS\3DMULTITEXTURING\MULTITEXTUREDEMO.CPP
/c /ZI /nologo /W3 /WX- /sdl /Od /Oy- /D _MBCS /D _XM_NO_INTRINSICS /Gm /EHsc /RTC1 /MDd /GS /fp:precise /Zc:wchar_t /Zc:forScope /Zc:inline /Fo"DEBUG\\" /Fd"DEBUG\VC140.PDB" /Gd /TP /analyze- N:\UNI\PROGRAMMING\SECOND YEAR\DIRECTXPROJECTS\3DMULTITEXTURING\MULTITEXTUREDEMO.CPP
