^N:\UNI\PROGRAMMING\SECOND YEAR\DIRECTXPROJECTS\3DINVERSIONCOLOR\COLORINVERSIONDEMO.CPP|N:\UNI\PROGRAMMING\SECOND YEAR\DIRECTXPROJECTS\3DINVERSIONCOLOR\DX11DEMOBASE.CPP|N:\UNI\PROGRAMMING\SECOND YEAR\DIRECTXPROJECTS\3DINVERSIONCOLOR\MAIN.CPP
N:\UNI\PROGRAMMING\SECOND YEAR\DIRECTXPROJECTS\3DINVERSIONCOLOR\DEBUG\VC140.PDB
N:\UNI\PROGRAMMING\SECOND YEAR\DIRECTXPROJECTS\3DINVERSIONCOLOR\DEBUG\VC140.IDB
N:\UNI\PROGRAMMING\SECOND YEAR\DIRECTXPROJECTS\3DINVERSIONCOLOR\DEBUG\DX11DEMOBASE.OBJ
^N:\UNI\PROGRAMMING\SECOND YEAR\DIRECTXPROJECTS\3DINVERSIONCOLOR\DX11DEMOBASE.CPP
N:\UNI\PROGRAMMING\SECOND YEAR\DIRECTXPROJECTS\3DINVERSIONCOLOR\DEBUG\VC140.PDB
^N:\UNI\PROGRAMMING\SECOND YEAR\DIRECTXPROJECTS\3DINVERSIONCOLOR\MAIN.CPP
N:\UNI\PROGRAMMING\SECOND YEAR\DIRECTXPROJECTS\3DINVERSIONCOLOR\DEBUG\VC140.PDB
^N:\UNI\PROGRAMMING\SECOND YEAR\DIRECTXPROJECTS\3DINVERSIONCOLOR\COLORINVERSIONDEMO.CPP
N:\UNI\PROGRAMMING\SECOND YEAR\DIRECTXPROJECTS\3DINVERSIONCOLOR\DEBUG\VC140.PDB
^N:\UNI\PROGRAMMING\SECOND YEAR\DIRECTXPROJECTS\3DINVERSIONCOLOR\COLORINVERSIONDEMO.CPP|N:\UNI\PROGRAMMING\SECOND YEAR\DIRECTXPROJECTS\3DINVERSIONCOLOR\MAIN.CPP
N:\UNI\PROGRAMMING\SECOND YEAR\DIRECTXPROJECTS\3DINVERSIONCOLOR\DEBUG\VC140.PDB
N:\UNI\PROGRAMMING\SECOND YEAR\DIRECTXPROJECTS\3DINVERSIONCOLOR\DEBUG\VC140.IDB
N:\UNI\PROGRAMMING\SECOND YEAR\DIRECTXPROJECTS\3DINVERSIONCOLOR\DEBUG\COLORINVERSIONDEMO.OBJ
N:\UNI\PROGRAMMING\SECOND YEAR\DIRECTXPROJECTS\3DINVERSIONCOLOR\DEBUG\MAIN.OBJ
^N:\UNI\PROGRAMMING\SECOND YEAR\DIRECTXPROJECTS\3DCOLOURSHIFT\COLORINVERSIONDEMO.CPP|N:\UNI\PROGRAMMING\SECOND YEAR\DIRECTXPROJECTS\3DCOLOURSHIFT\DX11DEMOBASE.CPP|N:\UNI\PROGRAMMING\SECOND YEAR\DIRECTXPROJECTS\3DCOLOURSHIFT\MAIN.CPP
N:\UNI\PROGRAMMING\SECOND YEAR\DIRECTXPROJECTS\3DCOLOURSHIFT\DEBUG\VC140.PDB
N:\UNI\PROGRAMMING\SECOND YEAR\DIRECTXPROJECTS\3DCOLOURSHIFT\DEBUG\VC140.IDB
N:\UNI\PROGRAMMING\SECOND YEAR\DIRECTXPROJECTS\3DCOLOURSHIFT\DEBUG\DX11DEMOBASE.OBJ
N:\UNI\PROGRAMMING\SECOND YEAR\DIRECTXPROJECTS\3DCOLOURSHIFT\DEBUG\MAIN.OBJ
N:\UNI\PROGRAMMING\SECOND YEAR\DIRECTXPROJECTS\3DCOLOURSHIFT\DEBUG\COLORINVERSIONDEMO.OBJ
^N:\UNI\PROGRAMMING\SECOND YEAR\DIRECTXPROJECTS\3DCOLOURSHIFT\DX11DEMOBASE.CPP
N:\UNI\PROGRAMMING\SECOND YEAR\DIRECTXPROJECTS\3DCOLOURSHIFT\DEBUG\VC140.PDB
^N:\UNI\PROGRAMMING\SECOND YEAR\DIRECTXPROJECTS\3DCOLOURSHIFT\MAIN.CPP
N:\UNI\PROGRAMMING\SECOND YEAR\DIRECTXPROJECTS\3DCOLOURSHIFT\DEBUG\VC140.PDB
^N:\UNI\PROGRAMMING\SECOND YEAR\DIRECTXPROJECTS\3DCOLOURSHIFT\COLORINVERSIONDEMO.CPP
N:\UNI\PROGRAMMING\SECOND YEAR\DIRECTXPROJECTS\3DCOLOURSHIFT\DEBUG\VC140.PDB
N:\UNI\PROGRAMMING\SECOND YEAR\DIRECTXPROJECTS\3DCOLOURSHIFT\DEBUG\VC140.IDB
N:\UNI\PROGRAMMING\SECOND YEAR\DIRECTXPROJECTS\3DCOLOURSHIFT\DEBUG\COLORINVERSIONDEMO.OBJ
^N:\UNI\PROGRAMMING\SECOND YEAR\DIRECTXPROJECTS\3DCOLOURSHIFT\COLORSHIFT.CPP|N:\UNI\PROGRAMMING\SECOND YEAR\DIRECTXPROJECTS\3DCOLOURSHIFT\MAIN.CPP
N:\UNI\PROGRAMMING\SECOND YEAR\DIRECTXPROJECTS\3DCOLOURSHIFT\DEBUG\VC140.PDB
N:\UNI\PROGRAMMING\SECOND YEAR\DIRECTXPROJECTS\3DCOLOURSHIFT\DEBUG\VC140.IDB
N:\UNI\PROGRAMMING\SECOND YEAR\DIRECTXPROJECTS\3DCOLOURSHIFT\DEBUG\MAIN.OBJ
N:\UNI\PROGRAMMING\SECOND YEAR\DIRECTXPROJECTS\3DCOLOURSHIFT\DEBUG\COLORSHIFT.OBJ
^N:\UNI\PROGRAMMING\SECOND YEAR\DIRECTXPROJECTS\3DCOLOURSHIFT\COLORSHIFT.CPP
N:\UNI\PROGRAMMING\SECOND YEAR\DIRECTXPROJECTS\3DCOLOURSHIFT\DEBUG\VC140.PDB
^N:\UNI\PROGRAMMING\SECOND YEAR\DIRECTXPROJECTS\3DMULTITEXTURING\DX11DEMOBASE.CPP|N:\UNI\PROGRAMMING\SECOND YEAR\DIRECTXPROJECTS\3DMULTITEXTURING\MAIN.CPP|N:\UNI\PROGRAMMING\SECOND YEAR\DIRECTXPROJECTS\3DMULTITEXTURING\MULTITEXTUREDEMO.CPP
N:\UNI\PROGRAMMING\SECOND YEAR\DIRECTXPROJECTS\3DMULTITEXTURING\DEBUG\VC140.PDB
N:\UNI\PROGRAMMING\SECOND YEAR\DIRECTXPROJECTS\3DMULTITEXTURING\DEBUG\VC140.IDB
N:\UNI\PROGRAMMING\SECOND YEAR\DIRECTXPROJECTS\3DMULTITEXTURING\DEBUG\DX11DEMOBASE.OBJ
N:\UNI\PROGRAMMING\SECOND YEAR\DIRECTXPROJECTS\3DMULTITEXTURING\DEBUG\MULTITEXTUREDEMO.OBJ
^N:\UNI\PROGRAMMING\SECOND YEAR\DIRECTXPROJECTS\3DMULTITEXTURING\DX11DEMOBASE.CPP
N:\UNI\PROGRAMMING\SECOND YEAR\DIRECTXPROJECTS\3DMULTITEXTURING\DEBUG\VC140.PDB
^N:\UNI\PROGRAMMING\SECOND YEAR\DIRECTXPROJECTS\3DMULTITEXTURING\MAIN.CPP
N:\UNI\PROGRAMMING\SECOND YEAR\DIRECTXPROJECTS\3DMULTITEXTURING\DEBUG\VC140.PDB
^N:\UNI\PROGRAMMING\SECOND YEAR\DIRECTXPROJECTS\3DMULTITEXTURING\MULTITEXTUREDEMO.CPP
N:\UNI\PROGRAMMING\SECOND YEAR\DIRECTXPROJECTS\3DMULTITEXTURING\DEBUG\VC140.PDB
N:\UNI\PROGRAMMING\SECOND YEAR\DIRECTXPROJECTS\3DMULTITEXTURING\DEBUG\VC140.IDB
N:\UNI\PROGRAMMING\SECOND YEAR\DIRECTXPROJECTS\3DMULTITEXTURING\DEBUG\MULTITEXTUREDEMO.OBJ
^N:\UNI\PROGRAMMING\SECOND YEAR\DIRECTXPROJECTS\3DMULTITEXTURING\MAIN.CPP|N:\UNI\PROGRAMMING\SECOND YEAR\DIRECTXPROJECTS\3DMULTITEXTURING\MULTITEXTUREDEMO.CPP
N:\UNI\PROGRAMMING\SECOND YEAR\DIRECTXPROJECTS\3DMULTITEXTURING\DEBUG\VC140.PDB
N:\UNI\PROGRAMMING\SECOND YEAR\DIRECTXPROJECTS\3DMULTITEXTURING\DEBUG\VC140.IDB
N:\UNI\PROGRAMMING\SECOND YEAR\DIRECTXPROJECTS\3DMULTITEXTURING\DEBUG\MULTITEXTUREDEMO.OBJ
N:\UNI\PROGRAMMING\SECOND YEAR\DIRECTXPROJECTS\3DMULTITEXTURING\DEBUG\MAIN.OBJ
