^D:\UNI STUFF\SECOND YEAR\PROGRAMMING\DIRECTX\IMPORTANTPROJECTS\3DINVERSIONCOLOR\COLORINVERSION.FX
/nologo /E"VS_Main" /T fx_5_0 /Fo "D:\Uni Stuff\Second Year\Programming\DirectX\ImportantProjects\3DInversionColor\Debug\ColorInversion.cso" /Od /Zi D:\UNI STUFF\SECOND YEAR\PROGRAMMING\DIRECTX\IMPORTANTPROJECTS\3DINVERSIONCOLOR\COLORINVERSION.FX
^N:\UNI\PROGRAMMING\SECOND YEAR\DIRECTXPROJECTS\3DINVERSIONCOLOR\COLORINVERSION.FX
/nologo /E"VS_Main" /T fx_5_0 /Fo "N:\Uni\Programming\Second Year\directxprojects\3DInversionColor\Debug\ColorInversion.cso" /Od /Zi N:\UNI\PROGRAMMING\SECOND YEAR\DIRECTXPROJECTS\3DINVERSIONCOLOR\COLORINVERSION.FX
^N:\UNI\PROGRAMMING\SECOND YEAR\DIRECTXPROJECTS\3DCOLOURSHIFT\COLORINVERSION.FX
/nologo /E"VS_Main" /T fx_5_0 /Fo "N:\Uni\Programming\Second Year\directxprojects\3DColourShift\Debug\ColorInversion.cso" /Od /Zi N:\UNI\PROGRAMMING\SECOND YEAR\DIRECTXPROJECTS\3DCOLOURSHIFT\COLORINVERSION.FX
^N:\UNI\PROGRAMMING\SECOND YEAR\DIRECTXPROJECTS\3DCOLOURSHIFT\COLORSHIFT.FX
/nologo /E"VS_Main" /T fx_5_0 /Fo "N:\Uni\Programming\Second Year\directxprojects\3DColourShift\Debug\ColorShift.cso" /Od /Zi N:\UNI\PROGRAMMING\SECOND YEAR\DIRECTXPROJECTS\3DCOLOURSHIFT\COLORSHIFT.FX
^N:\UNI\PROGRAMMING\SECOND YEAR\DIRECTXPROJECTS\3DMULTITEXTURING\MULTITEXTURE.FX
/nologo /E"VS_Main" /T fx_5_0 /Fo "N:\Uni\Programming\Second Year\directxprojects\3DMultitexturing\Debug\MultiTexture.cso" /Od /Zi N:\UNI\PROGRAMMING\SECOND YEAR\DIRECTXPROJECTS\3DMULTITEXTURING\MULTITEXTURE.FX
