^N:\UNI\PROGRAMMING\SECOND YEAR\DIRECTXPROJECTS\3DINVERSIONCOLOR\DEBUG\COLORINVERSIONDEMO.OBJ|N:\UNI\PROGRAMMING\SECOND YEAR\DIRECTXPROJECTS\3DINVERSIONCOLOR\DEBUG\DX11DEMOBASE.OBJ|N:\UNI\PROGRAMMING\SECOND YEAR\DIRECTXPROJECTS\3DINVERSIONCOLOR\DEBUG\MAIN.OBJ
N:\UNI\PROGRAMMING\SECOND YEAR\DIRECTXPROJECTS\3DINVERSIONCOLOR\DEBUG\BLANKD3DWINDOW.ILK
N:\UNI\PROGRAMMING\SECOND YEAR\DIRECTXPROJECTS\3DINVERSIONCOLOR\DEBUG\BLANKD3DWINDOW.EXE
N:\UNI\PROGRAMMING\SECOND YEAR\DIRECTXPROJECTS\3DINVERSIONCOLOR\DEBUG\BLANKD3DWINDOW.PDB
^N:\UNI\PROGRAMMING\SECOND YEAR\DIRECTXPROJECTS\3DCOLOURSHIFT\DEBUG\COLORSHIFT.OBJ|N:\UNI\PROGRAMMING\SECOND YEAR\DIRECTXPROJECTS\3DCOLOURSHIFT\DEBUG\DX11DEMOBASE.OBJ|N:\UNI\PROGRAMMING\SECOND YEAR\DIRECTXPROJECTS\3DCOLOURSHIFT\DEBUG\MAIN.OBJ
N:\UNI\PROGRAMMING\SECOND YEAR\DIRECTXPROJECTS\3DCOLOURSHIFT\DEBUG\BLANKD3DWINDOW.ILK
N:\UNI\PROGRAMMING\SECOND YEAR\DIRECTXPROJECTS\3DCOLOURSHIFT\DEBUG\BLANKD3DWINDOW.EXE
N:\UNI\PROGRAMMING\SECOND YEAR\DIRECTXPROJECTS\3DCOLOURSHIFT\DEBUG\BLANKD3DWINDOW.PDB
^N:\UNI\PROGRAMMING\SECOND YEAR\DIRECTXPROJECTS\3DMULTITEXTURING\DEBUG\DX11DEMOBASE.OBJ|N:\UNI\PROGRAMMING\SECOND YEAR\DIRECTXPROJECTS\3DMULTITEXTURING\DEBUG\MAIN.OBJ|N:\UNI\PROGRAMMING\SECOND YEAR\DIRECTXPROJECTS\3DMULTITEXTURING\DEBUG\MULTITEXTUREDEMO.OBJ
N:\UNI\PROGRAMMING\SECOND YEAR\DIRECTXPROJECTS\3DMULTITEXTURING\DEBUG\BLANKD3DWINDOW.ILK
N:\UNI\PROGRAMMING\SECOND YEAR\DIRECTXPROJECTS\3DMULTITEXTURING\DEBUG\BLANKD3DWINDOW.EXE
N:\UNI\PROGRAMMING\SECOND YEAR\DIRECTXPROJECTS\3DMULTITEXTURING\DEBUG\BLANKD3DWINDOW.PDB
