^N:\PROGRAMMING\SECOND YEAR\DIRECTXPROJECTS\3DCUBEDEMO\DX11DEMOBASE.CPP
/c /ZI /nologo /W3 /WX- /sdl /Od /Oy- /D _MBCS /Gm /EHsc /RTC1 /MDd /GS /fp:precise /Zc:wchar_t /Zc:forScope /Zc:inline /Fo"DEBUG\\" /Fd"DEBUG\VC140.PDB" /Gd /TP /analyze- N:\PROGRAMMING\SECOND YEAR\DIRECTXPROJECTS\3DCUBEDEMO\DX11DEMOBASE.CPP
^N:\PROGRAMMING\SECOND YEAR\DIRECTXPROJECTS\3DCUBEDEMO\MAIN.CPP
/c /ZI /nologo /W3 /WX- /sdl /Od /Oy- /D _MBCS /Gm /EHsc /RTC1 /MDd /GS /fp:precise /Zc:wchar_t /Zc:forScope /Zc:inline /Fo"DEBUG\\" /Fd"DEBUG\VC140.PDB" /Gd /TP /analyze- N:\PROGRAMMING\SECOND YEAR\DIRECTXPROJECTS\3DCUBEDEMO\MAIN.CPP
^N:\PROGRAMMING\SECOND YEAR\DIRECTXPROJECTS\3DCUBEDEMO\CUBEDEMO.CPP
/c /ZI /nologo /W3 /WX- /sdl /Od /Oy- /D _MBCS /Gm /EHsc /RTC1 /MDd /GS /fp:precise /Zc:wchar_t /Zc:forScope /Zc:inline /Fo"DEBUG\\" /Fd"DEBUG\VC140.PDB" /Gd /TP /analyze- N:\PROGRAMMING\SECOND YEAR\DIRECTXPROJECTS\3DCUBEDEMO\CUBEDEMO.CPP
^D:\UNI STUFF\SECOND YEAR\PROGRAMMING\DIRECTX\IMPORTANTPROJECTS\3DCUBEDEMO\DX11DEMOBASE.CPP
/c /ZI /nologo /W3 /WX- /sdl /Od /Oy- /D _MBCS /Gm /EHsc /RTC1 /MDd /GS /fp:precise /Zc:wchar_t /Zc:forScope /Zc:inline /Fo"DEBUG\\" /Fd"DEBUG\VC140.PDB" /Gd /TP /analyze- D:\UNI STUFF\SECOND YEAR\PROGRAMMING\DIRECTX\IMPORTANTPROJECTS\3DCUBEDEMO\DX11DEMOBASE.CPP
^D:\UNI STUFF\SECOND YEAR\PROGRAMMING\DIRECTX\IMPORTANTPROJECTS\3DCUBEDEMO\MAIN.CPP
/c /ZI /nologo /W3 /WX- /sdl /Od /Oy- /D _MBCS /Gm /EHsc /RTC1 /MDd /GS /fp:precise /Zc:wchar_t /Zc:forScope /Zc:inline /Fo"DEBUG\\" /Fd"DEBUG\VC140.PDB" /Gd /TP /analyze- D:\UNI STUFF\SECOND YEAR\PROGRAMMING\DIRECTX\IMPORTANTPROJECTS\3DCUBEDEMO\MAIN.CPP
^D:\UNI STUFF\SECOND YEAR\PROGRAMMING\DIRECTX\IMPORTANTPROJECTS\3DCUBEDEMO\CUBEDEMO.CPP
/c /ZI /nologo /W3 /WX- /sdl /Od /Oy- /D _MBCS /Gm /EHsc /RTC1 /MDd /GS /fp:precise /Zc:wchar_t /Zc:forScope /Zc:inline /Fo"DEBUG\\" /Fd"DEBUG\VC140.PDB" /Gd /TP /analyze- D:\UNI STUFF\SECOND YEAR\PROGRAMMING\DIRECTX\IMPORTANTPROJECTS\3DCUBEDEMO\CUBEDEMO.CPP
^N:\UNI\PROGRAMMING\SECOND YEAR\DIRECTXPROJECTS\3DLOOKATCAMERA\DX11DEMOBASE.CPP
/c /ZI /nologo /W3 /WX- /sdl /Od /Oy- /D _MBCS /Gm /EHsc /RTC1 /MDd /GS /fp:precise /Zc:wchar_t /Zc:forScope /Zc:inline /Fo"DEBUG\\" /Fd"DEBUG\VC140.PDB" /Gd /TP /analyze- N:\UNI\PROGRAMMING\SECOND YEAR\DIRECTXPROJECTS\3DLOOKATCAMERA\DX11DEMOBASE.CPP
^N:\UNI\PROGRAMMING\SECOND YEAR\DIRECTXPROJECTS\3DLOOKATCAMERA\LOOKATCAMERA.CPP
/c /ZI /nologo /W3 /WX- /sdl /Od /Oy- /D _MBCS /Gm /EHsc /RTC1 /MDd /GS /fp:precise /Zc:wchar_t /Zc:forScope /Zc:inline /Fo"DEBUG\\" /Fd"DEBUG\VC140.PDB" /Gd /TP /analyze- N:\UNI\PROGRAMMING\SECOND YEAR\DIRECTXPROJECTS\3DLOOKATCAMERA\LOOKATCAMERA.CPP
^N:\UNI\PROGRAMMING\SECOND YEAR\DIRECTXPROJECTS\3DLOOKATCAMERA\MAIN.CPP
/c /ZI /nologo /W3 /WX- /sdl /Od /Oy- /D _MBCS /Gm /EHsc /RTC1 /MDd /GS /fp:precise /Zc:wchar_t /Zc:forScope /Zc:inline /Fo"DEBUG\\" /Fd"DEBUG\VC140.PDB" /Gd /TP /analyze- N:\UNI\PROGRAMMING\SECOND YEAR\DIRECTXPROJECTS\3DLOOKATCAMERA\MAIN.CPP
^N:\UNI\PROGRAMMING\SECOND YEAR\DIRECTXPROJECTS\3DLOOKATCAMERA\CAMERADEMO.CPP
/c /ZI /nologo /W3 /WX- /sdl /Od /Oy- /D _MBCS /Gm /EHsc /RTC1 /MDd /GS /fp:precise /Zc:wchar_t /Zc:forScope /Zc:inline /Fo"DEBUG\\" /Fd"DEBUG\VC140.PDB" /Gd /TP /analyze- N:\UNI\PROGRAMMING\SECOND YEAR\DIRECTXPROJECTS\3DLOOKATCAMERA\CAMERADEMO.CPP
