^N:\PROGRAMMING\SECOND YEAR\DIRECTXPROJECTS\3DCUBEDEMO\TEXTUREMAP.FX
^D:\UNI STUFF\SECOND YEAR\PROGRAMMING\DIRECTX\IMPORTANTPROJECTS\3DCUBEDEMO\TEXTUREMAP.FX
^N:\UNI\PROGRAMMING\SECOND YEAR\DIRECTXPROJECTS\3DLOOKATCAMERA\TEXTUREMAP.FX
