^PixelShader.hlsl
^PixelShader.hlsl
^PixelShader.hlsl
^PixelShader.hlsl
^PixelShader.hlsl
^PixelShader.hlsl
^VertexShader.hlsl
D:\Uni Stuff\Second Year\Programming\DirectX\ImportantProjects\2DTriangleOrSquareDemo\Debug\PixelShader.cso
D:\Uni Stuff\Second Year\Programming\DirectX\ImportantProjects\2DTriangleOrSquareDemo\Debug\VertexShader.cso
^PixelShader.hlsl
^VertexShader.hlsl
D:\Uni Stuff\Second Year\Programming\DirectX\ImportantProjects\2DTriangleOrSquareDemo\Debug\PixelShader.cso
D:\Uni Stuff\Second Year\Programming\DirectX\ImportantProjects\2DTriangleOrSquareDemo\Debug\VertexShader.cso
^PixelShader.hlsl
^VertexShader.hlsl
D:\Uni Stuff\Second Year\Programming\DirectX\ImportantProjects\2DTextureMapping\Debug\PixelShader.cso
D:\Uni Stuff\Second Year\Programming\DirectX\ImportantProjects\2DTextureMapping\Debug\VertexShader.cso
^PixelShader.hlsl
^VertexShader.hlsl
D:\Uni Stuff\Second Year\Programming\DirectX\ImportantProjects\2DTextureMapping\Debug\PixelShader.cso
D:\Uni Stuff\Second Year\Programming\DirectX\ImportantProjects\2DTextureMapping\Debug\VertexShader.cso
^PixelShader.hlsl
^VertexShader.hlsl
D:\Uni Stuff\Second Year\Programming\DirectX\ImportantProjects\2DTextureMapping\Debug\PixelShader.cso
D:\Uni Stuff\Second Year\Programming\DirectX\ImportantProjects\2DTextureMapping\Debug\VertexShader.cso
^PixelShader.hlsl
^VertexShader.hlsl
D:\Uni Stuff\Second Year\Programming\DirectX\ImportantProjects\2DTextureMapping\Debug\PixelShader.cso
D:\Uni Stuff\Second Year\Programming\DirectX\ImportantProjects\2DTextureMapping\Debug\VertexShader.cso
^PixelShader.hlsl
^VertexShader.hlsl
D:\Uni Stuff\Second Year\Programming\DirectX\ImportantProjects\2DTextureMapping\Debug\PixelShader.cso
D:\Uni Stuff\Second Year\Programming\DirectX\ImportantProjects\2DTextureMapping\Debug\VertexShader.cso
^PixelShader.hlsl
^VertexShader.hlsl
D:\Uni Stuff\Second Year\Programming\DirectX\ImportantProjects\2DTextureMapping\Debug\PixelShader.cso
D:\Uni Stuff\Second Year\Programming\DirectX\ImportantProjects\2DTextureMapping\Debug\VertexShader.cso
^PixelShader.hlsl
^VertexShader.hlsl
D:\Uni Stuff\Second Year\Programming\DirectX\ImportantProjects\2DTextureMapping\Debug\PixelShader.cso
D:\Uni Stuff\Second Year\Programming\DirectX\ImportantProjects\2DTextureMapping\Debug\VertexShader.cso
^PixelShader.hlsl
^VertexShader.hlsl
D:\Uni Stuff\Second Year\Programming\DirectX\ImportantProjects\2DTextureMapping\Debug\PixelShader.cso
D:\Uni Stuff\Second Year\Programming\DirectX\ImportantProjects\2DTextureMapping\Debug\VertexShader.cso
^PixelShader.hlsl
^VertexShader.hlsl
D:\Uni Stuff\Second Year\Programming\DirectX\ImportantProjects\2DTextureMapping\Debug\PixelShader.cso
D:\Uni Stuff\Second Year\Programming\DirectX\ImportantProjects\2DTextureMapping\Debug\VertexShader.cso
^PixelShader.hlsl
^VertexShader.hlsl
D:\Uni Stuff\Second Year\Programming\DirectX\ImportantProjects\2DTextureMapping\Debug\PixelShader.cso
D:\Uni Stuff\Second Year\Programming\DirectX\ImportantProjects\2DTextureMapping\Debug\VertexShader.cso
^PixelShader.hlsl
^VertexShader.hlsl
D:\Uni Stuff\Second Year\Programming\DirectX\ImportantProjects\2DTextureMapping\Debug\PixelShader.cso
D:\Uni Stuff\Second Year\Programming\DirectX\ImportantProjects\2DTextureMapping\Debug\VertexShader.cso
^PixelShader.hlsl
^VertexShader.hlsl
D:\Uni Stuff\Second Year\Programming\DirectX\ImportantProjects\2DTextureMapping\Debug\PixelShader.cso
D:\Uni Stuff\Second Year\Programming\DirectX\ImportantProjects\2DTextureMapping\Debug\VertexShader.cso
^PixelShader.hlsl
D:\Uni Stuff\Second Year\Programming\DirectX\ImportantProjects\2DTextureMapping\Debug\PixelShader.cso
^PixelShader.hlsl
D:\Uni Stuff\Second Year\Programming\DirectX\ImportantProjects\2DTextureMapping\Debug\PixelShader.cso
^PixelShader.fx
D:\Uni Stuff\Second Year\Programming\DirectX\ImportantProjects\2DTextureMapping\Debug\PixelShader.cso
^PixelShader.fx
D:\Uni Stuff\Second Year\Programming\DirectX\ImportantProjects\2DTextureMapping\Debug\PixelShader.cso
^PixelShader.fx
D:\Uni Stuff\Second Year\Programming\DirectX\ImportantProjects\2DTextureMapping\Debug\PixelShader.cso
^PixelShader.fx
D:\Uni Stuff\Second Year\Programming\DirectX\ImportantProjects\2DTextureMapping\Debug\PixelShader.cso
^PixelShader.fx
D:\Uni Stuff\Second Year\Programming\DirectX\ImportantProjects\2DTextureMapping\Debug\PixelShader.cso
^PixelShader.fx
D:\Uni Stuff\Second Year\Programming\DirectX\ImportantProjects\2DTextureMapping\Debug\PixelShader.cso
^PixelShader.fx
D:\Uni Stuff\Second Year\Programming\DirectX\ImportantProjects\2DTextureMapping\Debug\PixelShader.cso
^PixelShader.fx
D:\Uni Stuff\Second Year\Programming\DirectX\ImportantProjects\2DTextureMapping\Debug\PixelShader.cso
^PixelShader.fx
D:\Uni Stuff\Second Year\Programming\DirectX\ImportantProjects\2DTextureMapping\Debug\PixelShader.cso
^PixelShader.fx
D:\Uni Stuff\Second Year\Programming\DirectX\ImportantProjects\2DTextureMapping\Debug\PixelShader.cso
^PixelShader.fx
D:\Uni Stuff\Second Year\Programming\DirectX\ImportantProjects\2DTextureMapping\Debug\PixelShader.cso
^PixelShader.fx
D:\Uni Stuff\Second Year\Programming\DirectX\ImportantProjects\2DTextureMapping\Debug\PixelShader.cso
^TextureMap.fx
D:\Uni Stuff\Second Year\Programming\DirectX\ImportantProjects\2DTextureMapping\Debug\TextureMap.cso
^TextureMap.fx
D:\Uni Stuff\Second Year\Programming\DirectX\ImportantProjects\2DTextureMapping\Debug\TextureMap.cso
^TextureMap.fx
D:\Uni Stuff\Second Year\Programming\DirectX\ImportantProjects\2DTextureMapping\Debug\TextureMap.cso
^TextureMap.fx
D:\Uni Stuff\Second Year\Programming\DirectX\ImportantProjects\2DTextureMapping\Debug\TextureMap.cso
^TextureMap.fx
D:\Uni Stuff\Second Year\Programming\DirectX\ImportantProjects\2DTextureMapping\Debug\TextureMap.cso
^TextureMap.fx
D:\Uni Stuff\Second Year\Programming\DirectX\ImportantProjects\2DTextureMapping\Debug\TextureMap.cso
^TextureMap.fx
D:\Uni Stuff\Second Year\Programming\DirectX\ImportantProjects\2DTextureMapping\Debug\TextureMap.cso
^TextureMap.fx
N:\Programming\Second Year\directxprojects\2DTextureMapping\Debug\TextureMap.cso
^TextureMap.fx
N:\Programming\Second Year\directxprojects\2DTextureMapping\Debug\TextureMap.cso
^TextureMap.fx
N:\Programming\Second Year\directxprojects\2DTextureMapping\Debug\TextureMap.cso
^TextureMap.fx
N:\Programming\Second Year\directxprojects\2DTextureMapping\Debug\TextureMap.cso
