^PixelShader.hlsl
^PixelShader.hlsl
^PixelShader.hlsl
^PixelShader.hlsl
^PixelShader.hlsl
^PixelShader.hlsl
^PixelShader.hlsl
^PixelShader.hlsl
^PixelShader.hlsl
^PixelShader.hlsl
^PixelShader.hlsl
^PixelShader.hlsl
^PixelShader.hlsl
^PixelShader.hlsl
^PixelShader.hlsl
^PixelShader.hlsl
^PixelShader.hlsl
^PixelShader.hlsl
^PixelShader.hlsl
^PixelShader.hlsl
^VertexShader.hlsl
D:\Uni Stuff\Second Year\Programming\DirectX\ImportantProjects\2DTrianglesTogether\Debug\PixelShader.cso
D:\Uni Stuff\Second Year\Programming\DirectX\ImportantProjects\2DTrianglesTogether\Debug\VertexShader.cso
^PixelShader.hlsl
^VertexShader.hlsl
D:\Uni Stuff\Second Year\Programming\DirectX\ImportantProjects\2DTrianglesTogether\Debug\PixelShader.cso
D:\Uni Stuff\Second Year\Programming\DirectX\ImportantProjects\2DTrianglesTogether\Debug\VertexShader.cso
^PixelShader.hlsl
^VertexShader.hlsl
D:\Uni Stuff\Second Year\Programming\DirectX\ImportantProjects\2DTrianglesTogether\Debug\PixelShader.cso
D:\Uni Stuff\Second Year\Programming\DirectX\ImportantProjects\2DTrianglesTogether\Debug\VertexShader.cso
^PixelShader.hlsl
^VertexShader.hlsl
D:\Uni Stuff\Second Year\Programming\DirectX\ImportantProjects\2DTrianglesTogether\Debug\PixelShader.cso
D:\Uni Stuff\Second Year\Programming\DirectX\ImportantProjects\2DTrianglesTogether\Debug\VertexShader.cso
^PixelShader.hlsl
^VertexShader.hlsl
D:\Uni Stuff\Second Year\Programming\DirectX\ImportantProjects\2DTrianglesTogether\Debug\PixelShader.cso
D:\Uni Stuff\Second Year\Programming\DirectX\ImportantProjects\2DTrianglesTogether\Debug\VertexShader.cso
^PixelShader.hlsl
^VertexShader.hlsl
D:\Uni Stuff\Second Year\Programming\DirectX\ImportantProjects\2DTrianglesTogether\Debug\PixelShader.cso
D:\Uni Stuff\Second Year\Programming\DirectX\ImportantProjects\2DTrianglesTogether\Debug\VertexShader.cso
^PixelShader.hlsl
^VertexShader.hlsl
D:\Uni Stuff\Second Year\Programming\DirectX\ImportantProjects\2DTrianglesTogether\Debug\PixelShader.cso
D:\Uni Stuff\Second Year\Programming\DirectX\ImportantProjects\2DTrianglesTogether\Debug\VertexShader.cso
^PixelShader.hlsl
^VertexShader.hlsl
D:\Uni Stuff\Second Year\Programming\DirectX\ImportantProjects\2DTrianglesTogether\Debug\PixelShader.cso
D:\Uni Stuff\Second Year\Programming\DirectX\ImportantProjects\2DTrianglesTogether\Debug\VertexShader.cso
^PixelShader.hlsl
^VertexShader.hlsl
D:\Uni Stuff\Second Year\Programming\DirectX\ImportantProjects\2DTrianglesTogether\Debug\PixelShader.cso
D:\Uni Stuff\Second Year\Programming\DirectX\ImportantProjects\2DTrianglesTogether\Debug\VertexShader.cso
^PixelShader.hlsl
^VertexShader.hlsl
D:\Uni Stuff\Second Year\Programming\DirectX\ImportantProjects\2DTrianglesTogether\Debug\PixelShader.cso
D:\Uni Stuff\Second Year\Programming\DirectX\ImportantProjects\2DTrianglesTogether\Debug\VertexShader.cso
^PixelShader.hlsl
^VertexShader.hlsl
D:\Uni Stuff\Second Year\Programming\DirectX\ImportantProjects\2DTrianglesTogether\Debug\PixelShader.cso
D:\Uni Stuff\Second Year\Programming\DirectX\ImportantProjects\2DTrianglesTogether\Debug\VertexShader.cso
^PixelShader.hlsl
^VertexShader.hlsl
D:\Uni Stuff\Second Year\Programming\DirectX\ImportantProjects\2DTrianglesTogether\Debug\PixelShader.cso
D:\Uni Stuff\Second Year\Programming\DirectX\ImportantProjects\2DTrianglesTogether\Debug\VertexShader.cso
