^N:\PROGRAMMING\SECOND YEAR\DIRECTXPROJECTS\2DSPRITES\DX11DEMOBASE.CPP|N:\PROGRAMMING\SECOND YEAR\DIRECTXPROJECTS\2DSPRITES\GAMESPRITE.CPP|N:\PROGRAMMING\SECOND YEAR\DIRECTXPROJECTS\2DSPRITES\GAMESPRITEDEMO.CPP|N:\PROGRAMMING\SECOND YEAR\DIRECTXPROJECTS\2DSPRITES\MAIN.CPP
N:\PROGRAMMING\SECOND YEAR\DIRECTXPROJECTS\2DSPRITES\DEBUG\VC140.PDB
N:\PROGRAMMING\SECOND YEAR\DIRECTXPROJECTS\2DSPRITES\DEBUG\VC140.IDB
N:\PROGRAMMING\SECOND YEAR\DIRECTXPROJECTS\2DSPRITES\DEBUG\DX11DEMOBASE.OBJ
N:\PROGRAMMING\SECOND YEAR\DIRECTXPROJECTS\2DSPRITES\DEBUG\GAMESPRITE.OBJ
N:\PROGRAMMING\SECOND YEAR\DIRECTXPROJECTS\2DSPRITES\DEBUG\GAMESPRITEDEMO.OBJ
N:\PROGRAMMING\SECOND YEAR\DIRECTXPROJECTS\2DSPRITES\DEBUG\MAIN.OBJ
^N:\PROGRAMMING\SECOND YEAR\DIRECTXPROJECTS\2DSPRITES\DX11DEMOBASE.CPP
N:\PROGRAMMING\SECOND YEAR\DIRECTXPROJECTS\2DSPRITES\DEBUG\VC140.PDB
^N:\PROGRAMMING\SECOND YEAR\DIRECTXPROJECTS\2DSPRITES\GAMESPRITE.CPP
N:\PROGRAMMING\SECOND YEAR\DIRECTXPROJECTS\2DSPRITES\DEBUG\VC140.PDB
^N:\PROGRAMMING\SECOND YEAR\DIRECTXPROJECTS\2DSPRITES\GAMESPRITEDEMO.CPP
N:\PROGRAMMING\SECOND YEAR\DIRECTXPROJECTS\2DSPRITES\DEBUG\VC140.PDB
^N:\PROGRAMMING\SECOND YEAR\DIRECTXPROJECTS\2DSPRITES\MAIN.CPP
N:\PROGRAMMING\SECOND YEAR\DIRECTXPROJECTS\2DSPRITES\DEBUG\VC140.PDB
^N:\PROGRAMMING\SECOND YEAR\DIRECTXPROJECTS\2DSPRITES\GAMESPRITEDEMO.CPP|N:\PROGRAMMING\SECOND YEAR\DIRECTXPROJECTS\2DSPRITES\MAIN.CPP
N:\PROGRAMMING\SECOND YEAR\DIRECTXPROJECTS\2DSPRITES\DEBUG\VC140.PDB
N:\PROGRAMMING\SECOND YEAR\DIRECTXPROJECTS\2DSPRITES\DEBUG\VC140.IDB
N:\PROGRAMMING\SECOND YEAR\DIRECTXPROJECTS\2DSPRITES\DEBUG\GAMESPRITEDEMO.OBJ
N:\PROGRAMMING\SECOND YEAR\DIRECTXPROJECTS\2DSPRITES\DEBUG\MAIN.OBJ
