^ColorInversion.fx
D:\Uni Stuff\Second Year\Programming\DirectX\ImportantProjects\3DInversionColor\Debug\ColorInversion.cso
^ColorInversion.fx
D:\Uni Stuff\Second Year\Programming\DirectX\ImportantProjects\3DInversionColor\Debug\ColorInversion.cso
^ColorInversion.fx
D:\Uni Stuff\Second Year\Programming\DirectX\ImportantProjects\3DInversionColor\Debug\ColorInversion.cso
^ColorInversion.fx
D:\Uni Stuff\Second Year\Programming\DirectX\ImportantProjects\3DInversionColor\Debug\ColorInversion.cso
^ColorInversion.fx
D:\Uni Stuff\Second Year\Programming\DirectX\ImportantProjects\3DInversionColor\Debug\ColorInversion.cso
^ColorInversion.fx
D:\Uni Stuff\Second Year\Programming\DirectX\ImportantProjects\3DInversionColor\Debug\ColorInversion.cso
^ColorInversion.fx
D:\Uni Stuff\Second Year\Programming\DirectX\ImportantProjects\3DInversionColor\Debug\ColorInversion.cso
^ColorInversion.fx
D:\Uni Stuff\Second Year\Programming\DirectX\ImportantProjects\3DInversionColor\Debug\ColorInversion.cso
^ColorInversion.fx
D:\Uni Stuff\Second Year\Programming\DirectX\ImportantProjects\3DInversionColor\Debug\ColorInversion.cso
^ColorInversion.fx
D:\Uni Stuff\Second Year\Programming\DirectX\ImportantProjects\3DInversionColor\Debug\ColorInversion.cso
^ColorInversion.fx
D:\Uni Stuff\Second Year\Programming\DirectX\ImportantProjects\3DInversionColor\Debug\ColorInversion.cso
^ColorInversion.fx
D:\Uni Stuff\Second Year\Programming\DirectX\ImportantProjects\3DInversionColor\Debug\ColorInversion.cso
^ColorInversion.fx
D:\Uni Stuff\Second Year\Programming\DirectX\ImportantProjects\3DInversionColor\Debug\ColorInversion.cso
^ColorInversion.fx
D:\Uni Stuff\Second Year\Programming\DirectX\ImportantProjects\3DInversionColor\Debug\ColorInversion.cso
^ColorInversion.fx
D:\Uni Stuff\Second Year\Programming\DirectX\ImportantProjects\3DInversionColor\Debug\ColorInversion.cso
^ColorInversion.fx
D:\Uni Stuff\Second Year\Programming\DirectX\ImportantProjects\3DInversionColor\Debug\ColorInversion.cso
^ColorInversion.fx
D:\Uni Stuff\Second Year\Programming\DirectX\ImportantProjects\3DInversionColor\Debug\ColorInversion.cso
^ColorInversion.fx
D:\Uni Stuff\Second Year\Programming\DirectX\ImportantProjects\3DInversionColor\Debug\ColorInversion.cso
^ColorInversion.fx
N:\Uni\Programming\Second Year\directxprojects\3DInversionColor\Debug\ColorInversion.cso
^ColorInversion.fx
N:\Uni\Programming\Second Year\directxprojects\3DInversionColor\Debug\ColorInversion.cso
^ColorInversion.fx
N:\Uni\Programming\Second Year\directxprojects\3DInversionColor\Debug\ColorInversion.cso
^ColorInversion.fx
N:\Uni\Programming\Second Year\directxprojects\3DInversionColor\Debug\ColorInversion.cso
^ColorInversion.fx
N:\Uni\Programming\Second Year\directxprojects\3DInversionColor\Debug\ColorInversion.cso
^ColorInversion.fx
N:\Uni\Programming\Second Year\directxprojects\3DInversionColor\Debug\ColorInversion.cso
