^D:\UNI STUFF\SECOND YEAR\PROGRAMMING\DIRECTX\IMPORTANTPROJECTS\3DINVERSIONCOLOR\DEBUG\COLORINVERSIONDEMO.OBJ|D:\UNI STUFF\SECOND YEAR\PROGRAMMING\DIRECTX\IMPORTANTPROJECTS\3DINVERSIONCOLOR\DEBUG\DX11DEMOBASE.OBJ|D:\UNI STUFF\SECOND YEAR\PROGRAMMING\DIRECTX\IMPORTANTPROJECTS\3DINVERSIONCOLOR\DEBUG\MAIN.OBJ
/OUT:"D:\UNI STUFF\SECOND YEAR\PROGRAMMING\DIRECTX\IMPORTANTPROJECTS\3DINVERSIONCOLOR\DEBUG\BLANKD3DWINDOW.EXE" /VERBOSE /INCREMENTAL /NOLOGO /LIBPATH:D:\LIB\X86 KERNEL32.LIB USER32.LIB GDI32.LIB WINSPOOL.LIB COMDLG32.LIB ADVAPI32.LIB SHELL32.LIB OLE32.LIB OLEAUT32.LIB UUID.LIB ODBC32.LIB ODBCCP32.LIB D3D11.LIB D3DX11.LIB DXERR.LIB LEGACY_STDIO_DEFINITIONS.LIB D3DCOMPILER.LIB EFFECTS11D.LIB KERNEL32.LIB USER32.LIB GDI32.LIB WINSPOOL.LIB COMDLG32.LIB ADVAPI32.LIB SHELL32.LIB OLE32.LIB OLEAUT32.LIB UUID.LIB ODBC32.LIB ODBCCP32.LIB KERNEL32.LIB USER32.LIB GDI32.LIB WINSPOOL.LIB COMDLG32.LIB ADVAPI32.LIB SHELL32.LIB OLE32.LIB OLEAUT32.LIB UUID.LIB ODBC32.LIB ODBCCP32.LIB /MANIFEST /MANIFESTUAC:"level='asInvoker' uiAccess='false'" /manifest:embed /DEBUG:FASTLINK /PDB:"D:\UNI STUFF\SECOND YEAR\PROGRAMMING\DIRECTX\IMPORTANTPROJECTS\3DINVERSIONCOLOR\DEBUG\BLANKD3DWINDOW.PDB" /TLBID:1 /DYNAMICBASE /NXCOMPAT /IMPLIB:"D:\UNI STUFF\SECOND YEAR\PROGRAMMING\DIRECTX\IMPORTANTPROJECTS\3DINVERSIONCOLOR\DEBUG\BLANKD3DWINDOW.LIB" /MACHINE:X86 DEBUG\DX11DEMOBASE.OBJDEBUG\MAIN.OBJDEBUG\COLORINVERSIONDEMO.OBJ
^N:\UNI\PROGRAMMING\SECOND YEAR\DIRECTXPROJECTS\3DINVERSIONCOLOR\DEBUG\COLORINVERSIONDEMO.OBJ|N:\UNI\PROGRAMMING\SECOND YEAR\DIRECTXPROJECTS\3DINVERSIONCOLOR\DEBUG\DX11DEMOBASE.OBJ|N:\UNI\PROGRAMMING\SECOND YEAR\DIRECTXPROJECTS\3DINVERSIONCOLOR\DEBUG\MAIN.OBJ
/OUT:"N:\UNI\PROGRAMMING\SECOND YEAR\DIRECTXPROJECTS\3DINVERSIONCOLOR\DEBUG\BLANKD3DWINDOW.EXE" /VERBOSE /INCREMENTAL /NOLOGO /LIBPATH:D:\LIB\X86 KERNEL32.LIB USER32.LIB GDI32.LIB WINSPOOL.LIB COMDLG32.LIB ADVAPI32.LIB SHELL32.LIB OLE32.LIB OLEAUT32.LIB UUID.LIB ODBC32.LIB ODBCCP32.LIB D3D11.LIB D3DX11.LIB DXERR.LIB LEGACY_STDIO_DEFINITIONS.LIB D3DCOMPILER.LIB EFFECTS11D.LIB KERNEL32.LIB USER32.LIB GDI32.LIB WINSPOOL.LIB COMDLG32.LIB ADVAPI32.LIB SHELL32.LIB OLE32.LIB OLEAUT32.LIB UUID.LIB ODBC32.LIB ODBCCP32.LIB /MANIFEST /MANIFESTUAC:"level='asInvoker' uiAccess='false'" /manifest:embed /DEBUG:FASTLINK /PDB:"N:\UNI\PROGRAMMING\SECOND YEAR\DIRECTXPROJECTS\3DINVERSIONCOLOR\DEBUG\BLANKD3DWINDOW.PDB" /TLBID:1 /DYNAMICBASE /NXCOMPAT /IMPLIB:"N:\UNI\PROGRAMMING\SECOND YEAR\DIRECTXPROJECTS\3DINVERSIONCOLOR\DEBUG\BLANKD3DWINDOW.LIB" /MACHINE:X86 DEBUG\DX11DEMOBASE.OBJDEBUG\MAIN.OBJDEBUG\COLORINVERSIONDEMO.OBJ
