^PixelShader.hlsl
^VertexShader.hlsl
N:\Programming\Second Year\directxprojects\2DTriangleInput\Debug\PixelShader.cso
N:\Programming\Second Year\directxprojects\2DTriangleInput\Debug\VertexShader.cso
^PixelShader.hlsl
^VertexShader.hlsl
N:\Programming\Second Year\directxprojects\2DTriangleInput\Debug\PixelShader.cso
N:\Programming\Second Year\directxprojects\2DTriangleInput\Debug\VertexShader.cso
^PixelShader.hlsl
^VertexShader.hlsl
N:\Programming\Second Year\directxprojects\2DTriangleInput\Debug\PixelShader.cso
N:\Programming\Second Year\directxprojects\2DTriangleInput\Debug\VertexShader.cso
^PixelShader.hlsl
^VertexShader.hlsl
N:\Programming\Second Year\directxprojects\2DTriangleInput\Debug\PixelShader.cso
N:\Programming\Second Year\directxprojects\2DTriangleInput\Debug\VertexShader.cso
^PixelShader.hlsl
^VertexShader.hlsl
N:\Programming\Second Year\directxprojects\2DTriangleInput\Debug\PixelShader.cso
N:\Programming\Second Year\directxprojects\2DTriangleInput\Debug\VertexShader.cso
^PixelShader.hlsl
^VertexShader.hlsl
N:\Programming\Second Year\directxprojects\2DTriangleInput\Debug\PixelShader.cso
N:\Programming\Second Year\directxprojects\2DTriangleInput\Debug\VertexShader.cso
^PixelShader.hlsl
^VertexShader.hlsl
N:\Programming\Second Year\directxprojects\2DTriangleInput\Debug\PixelShader.cso
N:\Programming\Second Year\directxprojects\2DTriangleInput\Debug\VertexShader.cso
^PixelShader.hlsl
^VertexShader.hlsl
N:\Programming\Second Year\directxprojects\2DTriangleInput\Debug\PixelShader.cso
N:\Programming\Second Year\directxprojects\2DTriangleInput\Debug\VertexShader.cso
^PixelShader.hlsl
^VertexShader.hlsl
N:\Programming\Second Year\directxprojects\2DTriangleInput\Debug\PixelShader.cso
N:\Programming\Second Year\directxprojects\2DTriangleInput\Debug\VertexShader.cso
^PixelShader.hlsl
^VertexShader.hlsl
N:\Programming\Second Year\directxprojects\2DTriangleInput\Debug\PixelShader.cso
N:\Programming\Second Year\directxprojects\2DTriangleInput\Debug\VertexShader.cso
^PixelShader.hlsl
^VertexShader.hlsl
N:\Programming\Second Year\directxprojects\2DTriangleInput\Debug\PixelShader.cso
N:\Programming\Second Year\directxprojects\2DTriangleInput\Debug\VertexShader.cso
^PixelShader.hlsl
^VertexShader.hlsl
N:\Programming\Second Year\directxprojects\2DTriangleInput\Debug\PixelShader.cso
N:\Programming\Second Year\directxprojects\2DTriangleInput\Debug\VertexShader.cso
^PixelShader.hlsl
^VertexShader.hlsl
N:\Programming\Second Year\directxprojects\2DTriangleInput\Debug\PixelShader.cso
N:\Programming\Second Year\directxprojects\2DTriangleInput\Debug\VertexShader.cso
^PixelShader.hlsl
^VertexShader.hlsl
N:\Programming\Second Year\directxprojects\2DTriangleInput\Debug\PixelShader.cso
N:\Programming\Second Year\directxprojects\2DTriangleInput\Debug\VertexShader.cso
^PixelShader.hlsl
^VertexShader.hlsl
N:\Programming\Second Year\directxprojects\2DTriangleInput\Debug\PixelShader.cso
N:\Programming\Second Year\directxprojects\2DTriangleInput\Debug\VertexShader.cso
^PixelShader.hlsl
^VertexShader.hlsl
N:\Programming\Second Year\directxprojects\2DTriangleInput\Debug\PixelShader.cso
N:\Programming\Second Year\directxprojects\2DTriangleInput\Debug\VertexShader.cso
^PixelShader.hlsl
^VertexShader.hlsl
N:\Programming\Second Year\directxprojects\2DTriangleInput\Debug\PixelShader.cso
N:\Programming\Second Year\directxprojects\2DTriangleInput\Debug\VertexShader.cso
^PixelShader.hlsl
^VertexShader.hlsl
N:\Programming\Second Year\directxprojects\2DTriangleInput\Debug\PixelShader.cso
N:\Programming\Second Year\directxprojects\2DTriangleInput\Debug\VertexShader.cso
^PixelShader.hlsl
^VertexShader.hlsl
N:\Programming\Second Year\directxprojects\2DTriangleInput\Debug\PixelShader.cso
N:\Programming\Second Year\directxprojects\2DTriangleInput\Debug\VertexShader.cso
^PixelShader.hlsl
^VertexShader.hlsl
N:\Programming\Second Year\directxprojects\2DTriangleInput\Debug\PixelShader.cso
N:\Programming\Second Year\directxprojects\2DTriangleInput\Debug\VertexShader.cso
^CustomColor.hlsl
^PixelShader.hlsl
^VertexShader.hlsl
N:\Programming\Second Year\directxprojects\2DTriangleInput\Debug\CustomColor.cso
N:\Programming\Second Year\directxprojects\2DTriangleInput\Debug\PixelShader.cso
N:\Programming\Second Year\directxprojects\2DTriangleInput\Debug\VertexShader.cso
^CustomColor.hlsl
^PixelShader.hlsl
^VertexShader.hlsl
N:\Programming\Second Year\directxprojects\2DTriangleInput\Debug\CustomColor.cso
N:\Programming\Second Year\directxprojects\2DTriangleInput\Debug\PixelShader.cso
N:\Programming\Second Year\directxprojects\2DTriangleInput\Debug\VertexShader.cso
^CustomColor.hlsl
^PixelShader.hlsl
^VertexShader.hlsl
N:\Programming\Second Year\directxprojects\2DTriangleInput\Debug\CustomColor.cso
N:\Programming\Second Year\directxprojects\2DTriangleInput\Debug\PixelShader.cso
N:\Programming\Second Year\directxprojects\2DTriangleInput\Debug\VertexShader.cso
^CustomColor.hlsl
^PixelShader.hlsl
^VertexShader.hlsl
N:\Programming\Second Year\directxprojects\2DTriangleInput\Debug\CustomColor.cso
N:\Programming\Second Year\directxprojects\2DTriangleInput\Debug\PixelShader.cso
N:\Programming\Second Year\directxprojects\2DTriangleInput\Debug\VertexShader.cso
^CustomColor.hlsl
^PixelShader.hlsl
^VertexShader.hlsl
N:\Programming\Second Year\directxprojects\2DTriangleInput\Debug\CustomColor.cso
N:\Programming\Second Year\directxprojects\2DTriangleInput\Debug\PixelShader.cso
N:\Programming\Second Year\directxprojects\2DTriangleInput\Debug\VertexShader.cso
^CustomColor.hlsl
^PixelShader.hlsl
^VertexShader.hlsl
N:\Programming\Second Year\directxprojects\2DTriangleInput\Debug\CustomColor.cso
N:\Programming\Second Year\directxprojects\2DTriangleInput\Debug\PixelShader.cso
N:\Programming\Second Year\directxprojects\2DTriangleInput\Debug\VertexShader.cso
^CustomColor.hlsl
^PixelShader.hlsl
^VertexShader.hlsl
N:\Programming\Second Year\directxprojects\2DTriangleInput\Debug\CustomColor.cso
N:\Programming\Second Year\directxprojects\2DTriangleInput\Debug\PixelShader.cso
N:\Programming\Second Year\directxprojects\2DTriangleInput\Debug\VertexShader.cso
^CustomColor.hlsl
^PixelShader.hlsl
^VertexShader.hlsl
N:\Programming\Second Year\directxprojects\2DTriangleInput\Debug\CustomColor.cso
N:\Programming\Second Year\directxprojects\2DTriangleInput\Debug\PixelShader.cso
N:\Programming\Second Year\directxprojects\2DTriangleInput\Debug\VertexShader.cso
^CustomColor.hlsl
^PixelShader.hlsl
^VertexShader.hlsl
N:\Programming\Second Year\directxprojects\2DTriangleInput\Debug\CustomColor.cso
N:\Programming\Second Year\directxprojects\2DTriangleInput\Debug\PixelShader.cso
N:\Programming\Second Year\directxprojects\2DTriangleInput\Debug\VertexShader.cso
^CustomColor.hlsl
^PixelShader.hlsl
^VertexShader.hlsl
N:\Programming\Second Year\directxprojects\2DTriangleInput\Debug\CustomColor.cso
N:\Programming\Second Year\directxprojects\2DTriangleInput\Debug\PixelShader.cso
N:\Programming\Second Year\directxprojects\2DTriangleInput\Debug\VertexShader.cso
^CustomColor.hlsl
^PixelShader.hlsl
^VertexShader.hlsl
N:\Programming\Second Year\directxprojects\2DTriangleInput\Debug\CustomColor.cso
N:\Programming\Second Year\directxprojects\2DTriangleInput\Debug\PixelShader.cso
N:\Programming\Second Year\directxprojects\2DTriangleInput\Debug\VertexShader.cso
^CustomColor.fx
^PixelShader.hlsl
^VertexShader.hlsl
N:\Programming\Second Year\directxprojects\2DTriangleInput\Debug\CustomColor.cso
N:\Programming\Second Year\directxprojects\2DTriangleInput\Debug\PixelShader.cso
N:\Programming\Second Year\directxprojects\2DTriangleInput\Debug\VertexShader.cso
^CustomColor.fx
^PixelShader.hlsl
^VertexShader.hlsl
N:\Programming\Second Year\directxprojects\2DTriangleInput\Debug\CustomColor.cso
N:\Programming\Second Year\directxprojects\2DTriangleInput\Debug\PixelShader.cso
N:\Programming\Second Year\directxprojects\2DTriangleInput\Debug\VertexShader.cso
^CustomColor.fx
^PixelShader.hlsl
^VertexShader.hlsl
N:\Programming\Second Year\directxprojects\2DTriangleInput\Debug\CustomColor.cso
N:\Programming\Second Year\directxprojects\2DTriangleInput\Debug\PixelShader.cso
N:\Programming\Second Year\directxprojects\2DTriangleInput\Debug\VertexShader.cso
^CustomColor.fx
^PixelShader.hlsl
^VertexShader.hlsl
N:\Programming\Second Year\directxprojects\2DTriangleInput\Debug\CustomColor.cso
N:\Programming\Second Year\directxprojects\2DTriangleInput\Debug\PixelShader.cso
N:\Programming\Second Year\directxprojects\2DTriangleInput\Debug\VertexShader.cso
^CustomColor.fx
^PixelShader.hlsl
^VertexShader.hlsl
N:\Programming\Second Year\directxprojects\2DTriangleInput\Debug\CustomColor.cso
N:\Programming\Second Year\directxprojects\2DTriangleInput\Debug\PixelShader.cso
N:\Programming\Second Year\directxprojects\2DTriangleInput\Debug\VertexShader.cso
^CustomColor.fx
^PixelShader.hlsl
^VertexShader.hlsl
N:\Programming\Second Year\directxprojects\2DTriangleInput\Debug\CustomColor.cso
N:\Programming\Second Year\directxprojects\2DTriangleInput\Debug\PixelShader.cso
N:\Programming\Second Year\directxprojects\2DTriangleInput\Debug\VertexShader.cso
^CustomColor.fx
^PixelShader.hlsl
^VertexShader.hlsl
N:\Programming\Second Year\directxprojects\2DTriangleInput\Debug\CustomColor.cso
N:\Programming\Second Year\directxprojects\2DTriangleInput\Debug\PixelShader.cso
N:\Programming\Second Year\directxprojects\2DTriangleInput\Debug\VertexShader.cso
^CustomColor.fx
^PixelShader.hlsl
^VertexShader.hlsl
N:\Programming\Second Year\directxprojects\2DTriangleInput\Debug\CustomColor.cso
N:\Programming\Second Year\directxprojects\2DTriangleInput\Debug\PixelShader.cso
N:\Programming\Second Year\directxprojects\2DTriangleInput\Debug\VertexShader.cso
^CustomColor.fx
^PixelShader.hlsl
^VertexShader.hlsl
N:\Programming\Second Year\directxprojects\2DTriangleInput\Debug\CustomColor.cso
N:\Programming\Second Year\directxprojects\2DTriangleInput\Debug\PixelShader.cso
N:\Programming\Second Year\directxprojects\2DTriangleInput\Debug\VertexShader.cso
^CustomColor.fx
^PixelShader.hlsl
^VertexShader.hlsl
N:\Programming\Second Year\directxprojects\2DTriangleInput\Debug\CustomColor.cso
N:\Programming\Second Year\directxprojects\2DTriangleInput\Debug\PixelShader.cso
N:\Programming\Second Year\directxprojects\2DTriangleInput\Debug\VertexShader.cso
^CustomColor.fx
^PixelShader.hlsl
^VertexShader.hlsl
N:\Programming\Second Year\directxprojects\2DTriangleInput\Debug\CustomColor.cso
N:\Programming\Second Year\directxprojects\2DTriangleInput\Debug\PixelShader.cso
N:\Programming\Second Year\directxprojects\2DTriangleInput\Debug\VertexShader.cso
^CustomColor.fx
^PixelShader.hlsl
^VertexShader.hlsl
N:\Programming\Second Year\directxprojects\2DTriangleInput\Debug\CustomColor.cso
N:\Programming\Second Year\directxprojects\2DTriangleInput\Debug\PixelShader.cso
N:\Programming\Second Year\directxprojects\2DTriangleInput\Debug\VertexShader.cso
^CustomColor.fx
^PixelShader.hlsl
^VertexShader.hlsl
N:\Programming\Second Year\directxprojects\2DTriangleInput\Debug\CustomColor.cso
N:\Programming\Second Year\directxprojects\2DTriangleInput\Debug\PixelShader.cso
N:\Programming\Second Year\directxprojects\2DTriangleInput\Debug\VertexShader.cso
^CustomColor.fx
^PixelShader.hlsl
^VertexShader.hlsl
N:\Programming\Second Year\directxprojects\2DTriangleInput\Debug\CustomColor.cso
N:\Programming\Second Year\directxprojects\2DTriangleInput\Debug\PixelShader.cso
N:\Programming\Second Year\directxprojects\2DTriangleInput\Debug\VertexShader.cso
^CustomColor.fx
^PixelShader.hlsl
^VertexShader.hlsl
N:\Programming\Second Year\directxprojects\2DTriangleInput\Debug\CustomColor.cso
N:\Programming\Second Year\directxprojects\2DTriangleInput\Debug\PixelShader.cso
N:\Programming\Second Year\directxprojects\2DTriangleInput\Debug\VertexShader.cso
^CustomColor.fx
^PixelShader.hlsl
^VertexShader.hlsl
N:\Programming\Second Year\directxprojects\2DTriangleInput\Debug\CustomColor.cso
N:\Programming\Second Year\directxprojects\2DTriangleInput\Debug\PixelShader.cso
N:\Programming\Second Year\directxprojects\2DTriangleInput\Debug\VertexShader.cso
^CustomColor.fx
^PixelShader.hlsl
^VertexShader.hlsl
N:\Programming\Second Year\directxprojects\2DTriangleInput\Debug\CustomColor.cso
N:\Programming\Second Year\directxprojects\2DTriangleInput\Debug\PixelShader.cso
N:\Programming\Second Year\directxprojects\2DTriangleInput\Debug\VertexShader.cso
^CustomColor.fx
^PixelShader.hlsl
^VertexShader.hlsl
N:\Programming\Second Year\directxprojects\2DTriangleInput\Debug\CustomColor.cso
N:\Programming\Second Year\directxprojects\2DTriangleInput\Debug\PixelShader.cso
N:\Programming\Second Year\directxprojects\2DTriangleInput\Debug\VertexShader.cso
^CustomColor.fx
^PixelShader.hlsl
^VertexShader.hlsl
N:\Programming\Second Year\directxprojects\2DTriangleInput\Debug\CustomColor.cso
N:\Programming\Second Year\directxprojects\2DTriangleInput\Debug\PixelShader.cso
N:\Programming\Second Year\directxprojects\2DTriangleInput\Debug\VertexShader.cso
^CustomColor.fx
^PixelShader.hlsl
^VertexShader.hlsl
N:\Programming\Second Year\directxprojects\2DTriangleInput\Debug\CustomColor.cso
N:\Programming\Second Year\directxprojects\2DTriangleInput\Debug\PixelShader.cso
N:\Programming\Second Year\directxprojects\2DTriangleInput\Debug\VertexShader.cso
^CustomColor.fx
^PixelShader.hlsl
^VertexShader.hlsl
N:\Programming\Second Year\directxprojects\2DTriangleMouseInput\Debug\CustomColor.cso
N:\Programming\Second Year\directxprojects\2DTriangleMouseInput\Debug\PixelShader.cso
N:\Programming\Second Year\directxprojects\2DTriangleMouseInput\Debug\VertexShader.cso
^CustomColor.fx
^PixelShader.hlsl
^VertexShader.hlsl
N:\Programming\Second Year\directxprojects\2DTriangleMouseInput\Debug\CustomColor.cso
N:\Programming\Second Year\directxprojects\2DTriangleMouseInput\Debug\PixelShader.cso
N:\Programming\Second Year\directxprojects\2DTriangleMouseInput\Debug\VertexShader.cso
^CustomColor.fx
^PixelShader.hlsl
^VertexShader.hlsl
N:\Programming\Second Year\directxprojects\2DTriangleMouseInput\Debug\CustomColor.cso
N:\Programming\Second Year\directxprojects\2DTriangleMouseInput\Debug\PixelShader.cso
N:\Programming\Second Year\directxprojects\2DTriangleMouseInput\Debug\VertexShader.cso
^CustomColor.fx
^PixelShader.hlsl
^VertexShader.hlsl
N:\Programming\Second Year\directxprojects\2DTriangleMouseInput\Debug\CustomColor.cso
N:\Programming\Second Year\directxprojects\2DTriangleMouseInput\Debug\PixelShader.cso
N:\Programming\Second Year\directxprojects\2DTriangleMouseInput\Debug\VertexShader.cso
^CustomColor.fx
^PixelShader.hlsl
^VertexShader.hlsl
N:\Programming\Second Year\directxprojects\2DTriangleMouseInput\Debug\CustomColor.cso
N:\Programming\Second Year\directxprojects\2DTriangleMouseInput\Debug\PixelShader.cso
N:\Programming\Second Year\directxprojects\2DTriangleMouseInput\Debug\VertexShader.cso
^CustomColor.fx
^PixelShader.hlsl
^VertexShader.hlsl
N:\Programming\Second Year\directxprojects\2DTriangleMouseInput\Debug\CustomColor.cso
N:\Programming\Second Year\directxprojects\2DTriangleMouseInput\Debug\PixelShader.cso
N:\Programming\Second Year\directxprojects\2DTriangleMouseInput\Debug\VertexShader.cso
^CustomColor.fx
^PixelShader.hlsl
^VertexShader.hlsl
N:\Programming\Second Year\directxprojects\2DTriangleMouseInput\Debug\CustomColor.cso
N:\Programming\Second Year\directxprojects\2DTriangleMouseInput\Debug\PixelShader.cso
N:\Programming\Second Year\directxprojects\2DTriangleMouseInput\Debug\VertexShader.cso
^CustomColor.fx
^PixelShader.hlsl
^VertexShader.hlsl
N:\Programming\Second Year\directxprojects\2DTriangleMouseInput\Debug\CustomColor.cso
N:\Programming\Second Year\directxprojects\2DTriangleMouseInput\Debug\PixelShader.cso
N:\Programming\Second Year\directxprojects\2DTriangleMouseInput\Debug\VertexShader.cso
^CustomColor.fx
^PixelShader.hlsl
^VertexShader.hlsl
N:\Programming\Second Year\directxprojects\2DTriangleMouseInput\Debug\CustomColor.cso
N:\Programming\Second Year\directxprojects\2DTriangleMouseInput\Debug\PixelShader.cso
N:\Programming\Second Year\directxprojects\2DTriangleMouseInput\Debug\VertexShader.cso
^CustomColor.fx
^PixelShader.hlsl
^VertexShader.hlsl
N:\Programming\Second Year\directxprojects\2DTriangleMouseInput\Debug\CustomColor.cso
N:\Programming\Second Year\directxprojects\2DTriangleMouseInput\Debug\PixelShader.cso
N:\Programming\Second Year\directxprojects\2DTriangleMouseInput\Debug\VertexShader.cso
^CustomColor.fx
^PixelShader.hlsl
^VertexShader.hlsl
N:\Programming\Second Year\directxprojects\2DTriangleMouseInput\Debug\CustomColor.cso
N:\Programming\Second Year\directxprojects\2DTriangleMouseInput\Debug\PixelShader.cso
N:\Programming\Second Year\directxprojects\2DTriangleMouseInput\Debug\VertexShader.cso
^CustomColor.fx
^PixelShader.hlsl
^VertexShader.hlsl
N:\Programming\Second Year\directxprojects\2DTriangleMouseInput\Debug\CustomColor.cso
N:\Programming\Second Year\directxprojects\2DTriangleMouseInput\Debug\PixelShader.cso
N:\Programming\Second Year\directxprojects\2DTriangleMouseInput\Debug\VertexShader.cso
^CustomColor.fx
^PixelShader.hlsl
^VertexShader.hlsl
N:\Programming\Second Year\directxprojects\2DTriangleMouseInput\Debug\CustomColor.cso
N:\Programming\Second Year\directxprojects\2DTriangleMouseInput\Debug\PixelShader.cso
N:\Programming\Second Year\directxprojects\2DTriangleMouseInput\Debug\VertexShader.cso
^CustomColor.fx
^PixelShader.hlsl
^VertexShader.hlsl
N:\Programming\Second Year\directxprojects\2DTriangleMouseInput\Debug\CustomColor.cso
N:\Programming\Second Year\directxprojects\2DTriangleMouseInput\Debug\PixelShader.cso
N:\Programming\Second Year\directxprojects\2DTriangleMouseInput\Debug\VertexShader.cso
