^N:\PROGRAMMING\SECOND YEAR\DIRECTXPROJECTS\2DTRIANGLEINPUT\PIXELSHADER.HLSL
/nologo /E"PS_Main" /T ps_4_0_level_9_3 /Fo "N:\Programming\Second Year\directxprojects\2DTriangleInput\Debug\PixelShader.cso" /Od /Zi N:\PROGRAMMING\SECOND YEAR\DIRECTXPROJECTS\2DTRIANGLEINPUT\PIXELSHADER.HLSL
^N:\PROGRAMMING\SECOND YEAR\DIRECTXPROJECTS\2DTRIANGLEINPUT\VERTEXSHADER.HLSL
/nologo /E"VS_Main" /T vs_4_0_level_9_3 /Fo "N:\Programming\Second Year\directxprojects\2DTriangleInput\Debug\VertexShader.cso" /Od /Zi N:\PROGRAMMING\SECOND YEAR\DIRECTXPROJECTS\2DTRIANGLEINPUT\VERTEXSHADER.HLSL
^N:\PROGRAMMING\SECOND YEAR\DIRECTXPROJECTS\2DTRIANGLEINPUT\CUSTOMCOLOR.HLSL
/nologo /E"VS_Main" /T vs_5_0 /Fo "N:\Programming\Second Year\directxprojects\2DTriangleInput\Debug\CustomColor.cso" /Od /Zi N:\PROGRAMMING\SECOND YEAR\DIRECTXPROJECTS\2DTRIANGLEINPUT\CUSTOMCOLOR.HLSL
^N:\PROGRAMMING\SECOND YEAR\DIRECTXPROJECTS\2DTRIANGLEINPUT\CUSTOMCOLOR.FX
/nologo /T fx_5_0 /Fo "N:\Programming\Second Year\directxprojects\2DTriangleInput\Debug\CustomColor.cso" /Od /Zi N:\PROGRAMMING\SECOND YEAR\DIRECTXPROJECTS\2DTRIANGLEINPUT\CUSTOMCOLOR.FX
^N:\PROGRAMMING\SECOND YEAR\DIRECTXPROJECTS\2DTRIANGLEMOUSEINPUT\CUSTOMCOLOR.FX
/nologo /T fx_5_0 /Fo "N:\Programming\Second Year\directxprojects\2DTriangleMouseInput\Debug\CustomColor.cso" /Od /Zi N:\PROGRAMMING\SECOND YEAR\DIRECTXPROJECTS\2DTRIANGLEMOUSEINPUT\CUSTOMCOLOR.FX
^N:\PROGRAMMING\SECOND YEAR\DIRECTXPROJECTS\2DTRIANGLEMOUSEINPUT\PIXELSHADER.HLSL
/nologo /E"PS_Main" /T ps_4_0_level_9_3 /Fo "N:\Programming\Second Year\directxprojects\2DTriangleMouseInput\Debug\PixelShader.cso" /Od /Zi N:\PROGRAMMING\SECOND YEAR\DIRECTXPROJECTS\2DTRIANGLEMOUSEINPUT\PIXELSHADER.HLSL
^N:\PROGRAMMING\SECOND YEAR\DIRECTXPROJECTS\2DTRIANGLEMOUSEINPUT\VERTEXSHADER.HLSL
/nologo /E"VS_Main" /T vs_4_0_level_9_3 /Fo "N:\Programming\Second Year\directxprojects\2DTriangleMouseInput\Debug\VertexShader.cso" /Od /Zi N:\PROGRAMMING\SECOND YEAR\DIRECTXPROJECTS\2DTRIANGLEMOUSEINPUT\VERTEXSHADER.HLSL
