^N:\PROGRAMMING\SECOND YEAR\DIRECTXPROJECTS\2DTRIANGLEORSQUARE\DX11DEMOBASE.CPP
N:\PROGRAMMING\SECOND YEAR\DIRECTXPROJECTS\2DTRIANGLEORSQUARE\DEBUG\VC140.PDB
^N:\PROGRAMMING\SECOND YEAR\DIRECTXPROJECTS\2DTRIANGLEORSQUARE\MAIN.CPP
N:\PROGRAMMING\SECOND YEAR\DIRECTXPROJECTS\2DTRIANGLEORSQUARE\DEBUG\VC140.PDB
^N:\PROGRAMMING\SECOND YEAR\DIRECTXPROJECTS\2DTRIANGLEORSQUARE\DX11DEMOBASE.CPP|N:\PROGRAMMING\SECOND YEAR\DIRECTXPROJECTS\2DTRIANGLEORSQUARE\MAIN.CPP|N:\PROGRAMMING\SECOND YEAR\DIRECTXPROJECTS\2DTRIANGLEORSQUARE\TRIANGLEDEMO.CPP
N:\PROGRAMMING\SECOND YEAR\DIRECTXPROJECTS\2DTRIANGLEORSQUARE\DEBUG\VC140.PDB
N:\PROGRAMMING\SECOND YEAR\DIRECTXPROJECTS\2DTRIANGLEORSQUARE\DEBUG\VC140.IDB
N:\PROGRAMMING\SECOND YEAR\DIRECTXPROJECTS\2DTRIANGLEORSQUARE\DEBUG\DX11DEMOBASE.OBJ
N:\PROGRAMMING\SECOND YEAR\DIRECTXPROJECTS\2DTRIANGLEORSQUARE\DEBUG\MAIN.OBJ
N:\PROGRAMMING\SECOND YEAR\DIRECTXPROJECTS\2DTRIANGLEORSQUARE\DEBUG\TRIANGLEDEMO.OBJ
^N:\PROGRAMMING\SECOND YEAR\DIRECTXPROJECTS\2DTRIANGLEORSQUARE\TRIANGLEDEMO.CPP
N:\PROGRAMMING\SECOND YEAR\DIRECTXPROJECTS\2DTRIANGLEORSQUARE\DEBUG\VC140.PDB
N:\PROGRAMMING\SECOND YEAR\DIRECTXPROJECTS\2DTRIANGLEORSQUARE\DEBUG\VC140.IDB
N:\PROGRAMMING\SECOND YEAR\DIRECTXPROJECTS\2DTRIANGLEORSQUARE\DEBUG\TRIANGLEDEMO.OBJ
